//Maya ASCII 2019 scene
//Name: Eni.ma
//Last modified: Fri, Aug 16, 2019 02:52:59 PM
//Codeset: 1252
requires maya "2019";
requires "mtoa" "3.1.2";
currentUnit -l centimeter -a degree -t film;
fileInfo "application" "maya";
fileInfo "product" "Maya 2019";
fileInfo "version" "2019";
fileInfo "cutIdentifier" "201812112215-434d8d9c04";
fileInfo "osv" "Microsoft Windows 10 Technical Preview  (Build 18362)\n";
fileInfo "license" "education";
createNode transform -n "pSphere4";
	rename -uid "AE02C1C3-4CEA-A640-A6B3-28B1D278EDC1";
	setAttr ".t" -type "double3" 0 4.3079174331925456 0 ;
	setAttr ".s" -type "double3" 1.5930180797731432 1.5930180797731432 1.5930180797731432 ;
createNode transform -n "transform26" -p "pSphere4";
	rename -uid "56FCE59F-4327-F554-9A4C-F3AD3B7DCA74";
	setAttr ".v" no;
createNode mesh -n "pSphereShape4" -p "transform26";
	rename -uid "AE383C3B-4A4E-56DC-B7F0-AAAE88FD7E8E";
	setAttr -k off ".v";
	setAttr ".io" yes;
	setAttr -s 2 ".iog[0].og";
	setAttr ".vir" yes;
	setAttr ".vif" yes;
	setAttr ".uvst[0].uvsn" -type "string" "map1";
	setAttr ".cuvs" -type "string" "map1";
	setAttr ".dcc" -type "string" "Ambient+Diffuse";
	setAttr ".covm[0]"  0 1 1;
	setAttr ".cdvm[0]"  0 1 1;
	setAttr ".ai_translator" -type "string" "polymesh";
createNode transform -n "pCylinder7";
	rename -uid "F66B8429-44D3-0FCF-FD19-C5BDFC4A6225";
	setAttr ".t" -type "double3" 0.57515950035650665 2.4724097354951664 0.70279765259195803 ;
	setAttr ".r" -type "double3" -21.866293407032337 13.079574896026267 22.820233982290887 ;
	setAttr ".s" -type "double3" 0.19764625648810416 0.74197377132210507 0.19764625648810416 ;
createNode transform -n "transform25" -p "pCylinder7";
	rename -uid "747EA2A7-4262-204F-1D47-F9804F3E5DEA";
	setAttr ".v" no;
createNode mesh -n "pCylinderShape7" -p "transform25";
	rename -uid "B0F55867-44E6-E0BC-2F2B-A3A2859F4B1C";
	setAttr -k off ".v";
	setAttr ".io" yes;
	setAttr -s 2 ".iog[0].og";
	setAttr ".vir" yes;
	setAttr ".vif" yes;
	setAttr ".uvst[0].uvsn" -type "string" "map1";
	setAttr ".cuvs" -type "string" "map1";
	setAttr ".dcc" -type "string" "Ambient+Diffuse";
	setAttr ".covm[0]"  0 1 1;
	setAttr ".cdvm[0]"  0 1 1;
	setAttr ".ai_translator" -type "string" "polymesh";
createNode transform -n "pCylinder8";
	rename -uid "A2AAF9A4-4B81-C681-46BE-8AAA52F858EF";
	setAttr ".t" -type "double3" 0.89642134427981501 1.0392140639524228 0.96845231993938485 ;
	setAttr ".s" -type "double3" 0.17886369342541367 0.72530642992460048 0.17886369342541367 ;
createNode transform -n "transform23" -p "pCylinder8";
	rename -uid "7DAB4D5B-4901-E8F8-DAE2-CA811EE1643F";
	setAttr ".v" no;
createNode mesh -n "pCylinderShape8" -p "transform23";
	rename -uid "49815802-4AA1-AFEE-5A97-4BB2648B06DF";
	setAttr -k off ".v";
	setAttr ".io" yes;
	setAttr -s 2 ".iog[0].og";
	setAttr ".vir" yes;
	setAttr ".vif" yes;
	setAttr ".uvst[0].uvsn" -type "string" "map1";
	setAttr ".cuvs" -type "string" "map1";
	setAttr ".dcc" -type "string" "Ambient+Diffuse";
	setAttr ".covm[0]"  0 1 1;
	setAttr ".cdvm[0]"  0 1 1;
	setAttr ".ai_translator" -type "string" "polymesh";
createNode transform -n "pSphere5";
	rename -uid "90765A5F-422F-4618-285D-55901384E420";
	setAttr ".t" -type "double3" 0.895603784806836 1.7764931526967893 0.98100469528663092 ;
	setAttr ".s" -type "double3" 0.27470953954061006 0.27470953954061006 0.27470953954061006 ;
createNode transform -n "transform31" -p "pSphere5";
	rename -uid "FE99DD52-4F95-FB5A-0C9A-FD8443556EA7";
	setAttr ".v" no;
createNode mesh -n "pSphereShape5" -p "transform31";
	rename -uid "6A68DF69-42AA-85AA-D3DB-5EBE6D15D9D8";
	setAttr -k off ".v";
	setAttr ".io" yes;
	setAttr -s 2 ".iog[0].og";
	setAttr ".vir" yes;
	setAttr ".vif" yes;
	setAttr ".uvst[0].uvsn" -type "string" "map1";
	setAttr ".cuvs" -type "string" "map1";
	setAttr ".dcc" -type "string" "Ambient+Diffuse";
	setAttr ".covm[0]"  0 1 1;
	setAttr ".cdvm[0]"  0 1 1;
	setAttr ".ai_translator" -type "string" "polymesh";
createNode transform -n "pCube4";
	rename -uid "CD1268DA-4178-E8B2-64AE-2FA1E924C912";
	setAttr ".t" -type "double3" 1.1171176905730915 0.23515617714561554 0.97275245755456607 ;
	setAttr ".s" -type "double3" 0.93531515069441407 0.16896963238087012 0.43336530067080936 ;
createNode transform -n "transform30" -p "pCube4";
	rename -uid "E0A3D399-4E78-BA7B-359D-9CA087798211";
	setAttr ".v" no;
createNode mesh -n "pCubeShape4" -p "transform30";
	rename -uid "6AD41150-4725-B39F-616B-A1A7E0ACB77A";
	setAttr -k off ".v";
	setAttr ".io" yes;
	setAttr -s 2 ".iog[0].og";
	setAttr ".vir" yes;
	setAttr ".vif" yes;
	setAttr ".uvst[0].uvsn" -type "string" "map1";
	setAttr ".cuvs" -type "string" "map1";
	setAttr ".dcc" -type "string" "Ambient+Diffuse";
	setAttr ".covm[0]"  0 1 1;
	setAttr ".cdvm[0]"  0 1 1;
	setAttr ".ai_translator" -type "string" "polymesh";
createNode transform -n "pCylinder9";
	rename -uid "D7C88938-436A-5C1C-23CA-A4BC37F7899A";
	setAttr ".t" -type "double3" 0.92215719181278288 2.9362628883589501 -0.86043178815284793 ;
	setAttr ".r" -type "double3" 15.709959136824148 -5.2218643552165096 79.539978524937126 ;
	setAttr ".s" -type "double3" 0.19764625648810416 0.97045751249309298 0.19764625648810416 ;
createNode transform -n "transform24" -p "pCylinder9";
	rename -uid "4B7A127A-42E9-B4CE-25B7-6B8EF1490CA9";
	setAttr ".v" no;
createNode mesh -n "pCylinderShape9" -p "transform24";
	rename -uid "18C16D25-4665-B56C-B365-02BA581A1537";
	setAttr -k off ".v";
	setAttr ".io" yes;
	setAttr ".iog[0].og[0].gcl" -type "componentList" 1 "f[0:59]";
	setAttr ".vir" yes;
	setAttr ".vif" yes;
	setAttr ".uvst[0].uvsn" -type "string" "map1";
	setAttr -s 84 ".uvst[0].uvsp[0:83]" -type "float2" 0.64860266 0.10796607
		 0.62640899 0.064408496 0.59184152 0.029841021 0.54828393 0.0076473355 0.5 -7.4505806e-08
		 0.45171607 0.0076473504 0.40815851 0.029841051 0.37359107 0.064408526 0.3513974 0.1079661
		 0.34374997 0.15625 0.3513974 0.2045339 0.37359107 0.24809146 0.40815854 0.28265893
		 0.4517161 0.3048526 0.5 0.3125 0.54828387 0.3048526 0.59184146 0.28265893 0.62640893
		 0.24809146 0.6486026 0.2045339 0.65625 0.15625 0.375 0.3125 0.38749999 0.3125 0.39999998
		 0.3125 0.41249996 0.3125 0.42499995 0.3125 0.43749994 0.3125 0.44999993 0.3125 0.46249992
		 0.3125 0.4749999 0.3125 0.48749989 0.3125 0.49999988 0.3125 0.51249987 0.3125 0.52499986
		 0.3125 0.53749985 0.3125 0.54999983 0.3125 0.56249982 0.3125 0.57499981 0.3125 0.5874998
		 0.3125 0.59999979 0.3125 0.61249977 0.3125 0.62499976 0.3125 0.375 0.68843985 0.38749999
		 0.68843985 0.39999998 0.68843985 0.41249996 0.68843985 0.42499995 0.68843985 0.43749994
		 0.68843985 0.44999993 0.68843985 0.46249992 0.68843985 0.4749999 0.68843985 0.48749989
		 0.68843985 0.49999988 0.68843985 0.51249987 0.68843985 0.52499986 0.68843985 0.53749985
		 0.68843985 0.54999983 0.68843985 0.56249982 0.68843985 0.57499981 0.68843985 0.5874998
		 0.68843985 0.59999979 0.68843985 0.61249977 0.68843985 0.62499976 0.68843985 0.64860266
		 0.79546607 0.62640899 0.75190848 0.59184152 0.71734101 0.54828393 0.69514734 0.5
		 0.68749994 0.45171607 0.69514734 0.40815851 0.71734107 0.37359107 0.75190854 0.3513974
		 0.79546607 0.34374997 0.84375 0.3513974 0.89203393 0.37359107 0.93559146 0.40815854
		 0.97015893 0.4517161 0.9923526 0.5 1 0.54828387 0.9923526 0.59184146 0.97015893 0.62640893
		 0.93559146 0.6486026 0.89203393 0.65625 0.84375 0.5 0.15000001 0.5 0.83749998;
	setAttr ".cuvs" -type "string" "map1";
	setAttr ".dcc" -type "string" "Ambient+Diffuse";
	setAttr ".covm[0]"  0 1 1;
	setAttr ".cdvm[0]"  0 1 1;
	setAttr -s 42 ".vt[0:41]"  0.95105714 -1 -0.30901718 0.80901754 -1 -0.5877856
		 0.5877856 -1 -0.80901748 0.30901715 -1 -0.95105702 0 -1 -1.000000476837 -0.30901715 -1 -0.95105696
		 -0.58778548 -1 -0.8090173 -0.80901724 -1 -0.58778542 -0.95105678 -1 -0.30901706 -1.000000238419 -1 0
		 -0.95105678 -1 0.30901706 -0.80901718 -1 0.58778536 -0.58778536 -1 0.80901712 -0.30901706 -1 0.95105666
		 -2.9802322e-08 -1 1.000000119209 0.30901697 -1 0.9510566 0.58778524 -1 0.80901706
		 0.809017 -1 0.5877853 0.95105654 -1 0.309017 1 -1 0 0.95105714 1 -0.30901718 0.80901754 1 -0.5877856
		 0.5877856 1 -0.80901748 0.30901715 1 -0.95105702 0 1 -1.000000476837 -0.30901715 1 -0.95105696
		 -0.58778548 1 -0.8090173 -0.80901724 1 -0.58778542 -0.95105678 1 -0.30901706 -1.000000238419 1 0
		 -0.95105678 1 0.30901706 -0.80901718 1 0.58778536 -0.58778536 1 0.80901712 -0.30901706 1 0.95105666
		 -2.9802322e-08 1 1.000000119209 0.30901697 1 0.9510566 0.58778524 1 0.80901706 0.809017 1 0.5877853
		 0.95105654 1 0.309017 1 1 0 0 -1 0 0 1 0;
	setAttr -s 100 ".ed[0:99]"  0 1 0 1 2 0 2 3 0 3 4 0 4 5 0 5 6 0 6 7 0
		 7 8 0 8 9 0 9 10 0 10 11 0 11 12 0 12 13 0 13 14 0 14 15 0 15 16 0 16 17 0 17 18 0
		 18 19 0 19 0 0 20 21 0 21 22 0 22 23 0 23 24 0 24 25 0 25 26 0 26 27 0 27 28 0 28 29 0
		 29 30 0 30 31 0 31 32 0 32 33 0 33 34 0 34 35 0 35 36 0 36 37 0 37 38 0 38 39 0 39 20 0
		 0 20 1 1 21 1 2 22 1 3 23 1 4 24 1 5 25 1 6 26 1 7 27 1 8 28 1 9 29 1 10 30 1 11 31 1
		 12 32 1 13 33 1 14 34 1 15 35 1 16 36 1 17 37 1 18 38 1 19 39 1 40 0 1 40 1 1 40 2 1
		 40 3 1 40 4 1 40 5 1 40 6 1 40 7 1 40 8 1 40 9 1 40 10 1 40 11 1 40 12 1 40 13 1
		 40 14 1 40 15 1 40 16 1 40 17 1 40 18 1 40 19 1 20 41 1 21 41 1 22 41 1 23 41 1 24 41 1
		 25 41 1 26 41 1 27 41 1 28 41 1 29 41 1 30 41 1 31 41 1 32 41 1 33 41 1 34 41 1 35 41 1
		 36 41 1 37 41 1 38 41 1 39 41 1;
	setAttr -s 60 -ch 200 ".fc[0:59]" -type "polyFaces" 
		f 4 0 41 -21 -41
		mu 0 4 20 21 42 41
		f 4 1 42 -22 -42
		mu 0 4 21 22 43 42
		f 4 2 43 -23 -43
		mu 0 4 22 23 44 43
		f 4 3 44 -24 -44
		mu 0 4 23 24 45 44
		f 4 4 45 -25 -45
		mu 0 4 24 25 46 45
		f 4 5 46 -26 -46
		mu 0 4 25 26 47 46
		f 4 6 47 -27 -47
		mu 0 4 26 27 48 47
		f 4 7 48 -28 -48
		mu 0 4 27 28 49 48
		f 4 8 49 -29 -49
		mu 0 4 28 29 50 49
		f 4 9 50 -30 -50
		mu 0 4 29 30 51 50
		f 4 10 51 -31 -51
		mu 0 4 30 31 52 51
		f 4 11 52 -32 -52
		mu 0 4 31 32 53 52
		f 4 12 53 -33 -53
		mu 0 4 32 33 54 53
		f 4 13 54 -34 -54
		mu 0 4 33 34 55 54
		f 4 14 55 -35 -55
		mu 0 4 34 35 56 55
		f 4 15 56 -36 -56
		mu 0 4 35 36 57 56
		f 4 16 57 -37 -57
		mu 0 4 36 37 58 57
		f 4 17 58 -38 -58
		mu 0 4 37 38 59 58
		f 4 18 59 -39 -59
		mu 0 4 38 39 60 59
		f 4 19 40 -40 -60
		mu 0 4 39 40 61 60
		f 3 -1 -61 61
		mu 0 3 1 0 82
		f 3 -2 -62 62
		mu 0 3 2 1 82
		f 3 -3 -63 63
		mu 0 3 3 2 82
		f 3 -4 -64 64
		mu 0 3 4 3 82
		f 3 -5 -65 65
		mu 0 3 5 4 82
		f 3 -6 -66 66
		mu 0 3 6 5 82
		f 3 -7 -67 67
		mu 0 3 7 6 82
		f 3 -8 -68 68
		mu 0 3 8 7 82
		f 3 -9 -69 69
		mu 0 3 9 8 82
		f 3 -10 -70 70
		mu 0 3 10 9 82
		f 3 -11 -71 71
		mu 0 3 11 10 82
		f 3 -12 -72 72
		mu 0 3 12 11 82
		f 3 -13 -73 73
		mu 0 3 13 12 82
		f 3 -14 -74 74
		mu 0 3 14 13 82
		f 3 -15 -75 75
		mu 0 3 15 14 82
		f 3 -16 -76 76
		mu 0 3 16 15 82
		f 3 -17 -77 77
		mu 0 3 17 16 82
		f 3 -18 -78 78
		mu 0 3 18 17 82
		f 3 -19 -79 79
		mu 0 3 19 18 82
		f 3 -20 -80 60
		mu 0 3 0 19 82
		f 3 20 81 -81
		mu 0 3 80 79 83
		f 3 21 82 -82
		mu 0 3 79 78 83
		f 3 22 83 -83
		mu 0 3 78 77 83
		f 3 23 84 -84
		mu 0 3 77 76 83
		f 3 24 85 -85
		mu 0 3 76 75 83
		f 3 25 86 -86
		mu 0 3 75 74 83
		f 3 26 87 -87
		mu 0 3 74 73 83
		f 3 27 88 -88
		mu 0 3 73 72 83
		f 3 28 89 -89
		mu 0 3 72 71 83
		f 3 29 90 -90
		mu 0 3 71 70 83
		f 3 30 91 -91
		mu 0 3 70 69 83
		f 3 31 92 -92
		mu 0 3 69 68 83
		f 3 32 93 -93
		mu 0 3 68 67 83
		f 3 33 94 -94
		mu 0 3 67 66 83
		f 3 34 95 -95
		mu 0 3 66 65 83
		f 3 35 96 -96
		mu 0 3 65 64 83
		f 3 36 97 -97
		mu 0 3 64 63 83
		f 3 37 98 -98
		mu 0 3 63 62 83
		f 3 38 99 -99
		mu 0 3 62 81 83
		f 3 39 80 -100
		mu 0 3 81 80 83;
	setAttr ".cd" -type "dataPolyComponent" Index_Data Edge 0 ;
	setAttr ".cvd" -type "dataPolyComponent" Index_Data Vertex 0 ;
	setAttr ".pd[0]" -type "dataPolyComponent" Index_Data UV 0 ;
	setAttr ".hfd" -type "dataPolyComponent" Index_Data Face 0 ;
	setAttr ".ai_translator" -type "string" "polymesh";
createNode transform -n "pSphere6";
	rename -uid "FD366A75-4E94-6E96-68D0-79B486958E4C";
	setAttr ".t" -type "double3" 1.9747805384358306 2.7814768508900909 -1.1531431827372804 ;
	setAttr ".s" -type "double3" 0.27470953954061006 0.27470953954061006 0.27470953954061006 ;
createNode transform -n "transform32" -p "pSphere6";
	rename -uid "89057362-43F7-36A9-DE26-D1B992FDD8A6";
	setAttr ".v" no;
createNode mesh -n "pSphereShape6" -p "transform32";
	rename -uid "AB51735E-46D5-635F-2813-2DBFED9DF207";
	setAttr -k off ".v";
	setAttr ".io" yes;
	setAttr ".iog[0].og[0].gcl" -type "componentList" 1 "f[0:399]";
	setAttr ".vir" yes;
	setAttr ".vif" yes;
	setAttr ".uvst[0].uvsn" -type "string" "map1";
	setAttr -s 439 ".uvst[0].uvsp";
	setAttr ".uvst[0].uvsp[0:249]" -type "float2" 0 0.050000001 0.050000001 0.050000001
		 0.1 0.050000001 0.15000001 0.050000001 0.2 0.050000001 0.25 0.050000001 0.30000001
		 0.050000001 0.35000002 0.050000001 0.40000004 0.050000001 0.45000005 0.050000001
		 0.50000006 0.050000001 0.55000007 0.050000001 0.60000008 0.050000001 0.6500001 0.050000001
		 0.70000011 0.050000001 0.75000012 0.050000001 0.80000013 0.050000001 0.85000014 0.050000001
		 0.90000015 0.050000001 0.95000017 0.050000001 1.000000119209 0.050000001 0 0.1 0.050000001
		 0.1 0.1 0.1 0.15000001 0.1 0.2 0.1 0.25 0.1 0.30000001 0.1 0.35000002 0.1 0.40000004
		 0.1 0.45000005 0.1 0.50000006 0.1 0.55000007 0.1 0.60000008 0.1 0.6500001 0.1 0.70000011
		 0.1 0.75000012 0.1 0.80000013 0.1 0.85000014 0.1 0.90000015 0.1 0.95000017 0.1 1.000000119209
		 0.1 0 0.15000001 0.050000001 0.15000001 0.1 0.15000001 0.15000001 0.15000001 0.2
		 0.15000001 0.25 0.15000001 0.30000001 0.15000001 0.35000002 0.15000001 0.40000004
		 0.15000001 0.45000005 0.15000001 0.50000006 0.15000001 0.55000007 0.15000001 0.60000008
		 0.15000001 0.6500001 0.15000001 0.70000011 0.15000001 0.75000012 0.15000001 0.80000013
		 0.15000001 0.85000014 0.15000001 0.90000015 0.15000001 0.95000017 0.15000001 1.000000119209
		 0.15000001 0 0.2 0.050000001 0.2 0.1 0.2 0.15000001 0.2 0.2 0.2 0.25 0.2 0.30000001
		 0.2 0.35000002 0.2 0.40000004 0.2 0.45000005 0.2 0.50000006 0.2 0.55000007 0.2 0.60000008
		 0.2 0.6500001 0.2 0.70000011 0.2 0.75000012 0.2 0.80000013 0.2 0.85000014 0.2 0.90000015
		 0.2 0.95000017 0.2 1.000000119209 0.2 0 0.25 0.050000001 0.25 0.1 0.25 0.15000001
		 0.25 0.2 0.25 0.25 0.25 0.30000001 0.25 0.35000002 0.25 0.40000004 0.25 0.45000005
		 0.25 0.50000006 0.25 0.55000007 0.25 0.60000008 0.25 0.6500001 0.25 0.70000011 0.25
		 0.75000012 0.25 0.80000013 0.25 0.85000014 0.25 0.90000015 0.25 0.95000017 0.25 1.000000119209
		 0.25 0 0.30000001 0.050000001 0.30000001 0.1 0.30000001 0.15000001 0.30000001 0.2
		 0.30000001 0.25 0.30000001 0.30000001 0.30000001 0.35000002 0.30000001 0.40000004
		 0.30000001 0.45000005 0.30000001 0.50000006 0.30000001 0.55000007 0.30000001 0.60000008
		 0.30000001 0.6500001 0.30000001 0.70000011 0.30000001 0.75000012 0.30000001 0.80000013
		 0.30000001 0.85000014 0.30000001 0.90000015 0.30000001 0.95000017 0.30000001 1.000000119209
		 0.30000001 0 0.35000002 0.050000001 0.35000002 0.1 0.35000002 0.15000001 0.35000002
		 0.2 0.35000002 0.25 0.35000002 0.30000001 0.35000002 0.35000002 0.35000002 0.40000004
		 0.35000002 0.45000005 0.35000002 0.50000006 0.35000002 0.55000007 0.35000002 0.60000008
		 0.35000002 0.6500001 0.35000002 0.70000011 0.35000002 0.75000012 0.35000002 0.80000013
		 0.35000002 0.85000014 0.35000002 0.90000015 0.35000002 0.95000017 0.35000002 1.000000119209
		 0.35000002 0 0.40000004 0.050000001 0.40000004 0.1 0.40000004 0.15000001 0.40000004
		 0.2 0.40000004 0.25 0.40000004 0.30000001 0.40000004 0.35000002 0.40000004 0.40000004
		 0.40000004 0.45000005 0.40000004 0.50000006 0.40000004 0.55000007 0.40000004 0.60000008
		 0.40000004 0.6500001 0.40000004 0.70000011 0.40000004 0.75000012 0.40000004 0.80000013
		 0.40000004 0.85000014 0.40000004 0.90000015 0.40000004 0.95000017 0.40000004 1.000000119209
		 0.40000004 0 0.45000005 0.050000001 0.45000005 0.1 0.45000005 0.15000001 0.45000005
		 0.2 0.45000005 0.25 0.45000005 0.30000001 0.45000005 0.35000002 0.45000005 0.40000004
		 0.45000005 0.45000005 0.45000005 0.50000006 0.45000005 0.55000007 0.45000005 0.60000008
		 0.45000005 0.6500001 0.45000005 0.70000011 0.45000005 0.75000012 0.45000005 0.80000013
		 0.45000005 0.85000014 0.45000005 0.90000015 0.45000005 0.95000017 0.45000005 1.000000119209
		 0.45000005 0 0.50000006 0.050000001 0.50000006 0.1 0.50000006 0.15000001 0.50000006
		 0.2 0.50000006 0.25 0.50000006 0.30000001 0.50000006 0.35000002 0.50000006 0.40000004
		 0.50000006 0.45000005 0.50000006 0.50000006 0.50000006 0.55000007 0.50000006 0.60000008
		 0.50000006 0.6500001 0.50000006 0.70000011 0.50000006 0.75000012 0.50000006 0.80000013
		 0.50000006 0.85000014 0.50000006 0.90000015 0.50000006 0.95000017 0.50000006 1.000000119209
		 0.50000006 0 0.55000007 0.050000001 0.55000007 0.1 0.55000007 0.15000001 0.55000007
		 0.2 0.55000007 0.25 0.55000007 0.30000001 0.55000007 0.35000002 0.55000007 0.40000004
		 0.55000007 0.45000005 0.55000007 0.50000006 0.55000007 0.55000007 0.55000007 0.60000008
		 0.55000007 0.6500001 0.55000007 0.70000011 0.55000007 0.75000012 0.55000007 0.80000013
		 0.55000007 0.85000014 0.55000007 0.90000015 0.55000007 0.95000017 0.55000007 1.000000119209
		 0.55000007 0 0.60000008 0.050000001 0.60000008 0.1 0.60000008 0.15000001 0.60000008
		 0.2 0.60000008 0.25 0.60000008 0.30000001 0.60000008 0.35000002 0.60000008 0.40000004
		 0.60000008 0.45000005 0.60000008 0.50000006 0.60000008 0.55000007 0.60000008 0.60000008
		 0.60000008 0.6500001 0.60000008 0.70000011 0.60000008 0.75000012 0.60000008 0.80000013
		 0.60000008 0.85000014 0.60000008 0.90000015 0.60000008;
	setAttr ".uvst[0].uvsp[250:438]" 0.95000017 0.60000008 1.000000119209 0.60000008
		 0 0.6500001 0.050000001 0.6500001 0.1 0.6500001 0.15000001 0.6500001 0.2 0.6500001
		 0.25 0.6500001 0.30000001 0.6500001 0.35000002 0.6500001 0.40000004 0.6500001 0.45000005
		 0.6500001 0.50000006 0.6500001 0.55000007 0.6500001 0.60000008 0.6500001 0.6500001
		 0.6500001 0.70000011 0.6500001 0.75000012 0.6500001 0.80000013 0.6500001 0.85000014
		 0.6500001 0.90000015 0.6500001 0.95000017 0.6500001 1.000000119209 0.6500001 0 0.70000011
		 0.050000001 0.70000011 0.1 0.70000011 0.15000001 0.70000011 0.2 0.70000011 0.25 0.70000011
		 0.30000001 0.70000011 0.35000002 0.70000011 0.40000004 0.70000011 0.45000005 0.70000011
		 0.50000006 0.70000011 0.55000007 0.70000011 0.60000008 0.70000011 0.6500001 0.70000011
		 0.70000011 0.70000011 0.75000012 0.70000011 0.80000013 0.70000011 0.85000014 0.70000011
		 0.90000015 0.70000011 0.95000017 0.70000011 1.000000119209 0.70000011 0 0.75000012
		 0.050000001 0.75000012 0.1 0.75000012 0.15000001 0.75000012 0.2 0.75000012 0.25 0.75000012
		 0.30000001 0.75000012 0.35000002 0.75000012 0.40000004 0.75000012 0.45000005 0.75000012
		 0.50000006 0.75000012 0.55000007 0.75000012 0.60000008 0.75000012 0.6500001 0.75000012
		 0.70000011 0.75000012 0.75000012 0.75000012 0.80000013 0.75000012 0.85000014 0.75000012
		 0.90000015 0.75000012 0.95000017 0.75000012 1.000000119209 0.75000012 0 0.80000013
		 0.050000001 0.80000013 0.1 0.80000013 0.15000001 0.80000013 0.2 0.80000013 0.25 0.80000013
		 0.30000001 0.80000013 0.35000002 0.80000013 0.40000004 0.80000013 0.45000005 0.80000013
		 0.50000006 0.80000013 0.55000007 0.80000013 0.60000008 0.80000013 0.6500001 0.80000013
		 0.70000011 0.80000013 0.75000012 0.80000013 0.80000013 0.80000013 0.85000014 0.80000013
		 0.90000015 0.80000013 0.95000017 0.80000013 1.000000119209 0.80000013 0 0.85000014
		 0.050000001 0.85000014 0.1 0.85000014 0.15000001 0.85000014 0.2 0.85000014 0.25 0.85000014
		 0.30000001 0.85000014 0.35000002 0.85000014 0.40000004 0.85000014 0.45000005 0.85000014
		 0.50000006 0.85000014 0.55000007 0.85000014 0.60000008 0.85000014 0.6500001 0.85000014
		 0.70000011 0.85000014 0.75000012 0.85000014 0.80000013 0.85000014 0.85000014 0.85000014
		 0.90000015 0.85000014 0.95000017 0.85000014 1.000000119209 0.85000014 0 0.90000015
		 0.050000001 0.90000015 0.1 0.90000015 0.15000001 0.90000015 0.2 0.90000015 0.25 0.90000015
		 0.30000001 0.90000015 0.35000002 0.90000015 0.40000004 0.90000015 0.45000005 0.90000015
		 0.50000006 0.90000015 0.55000007 0.90000015 0.60000008 0.90000015 0.6500001 0.90000015
		 0.70000011 0.90000015 0.75000012 0.90000015 0.80000013 0.90000015 0.85000014 0.90000015
		 0.90000015 0.90000015 0.95000017 0.90000015 1.000000119209 0.90000015 0 0.95000017
		 0.050000001 0.95000017 0.1 0.95000017 0.15000001 0.95000017 0.2 0.95000017 0.25 0.95000017
		 0.30000001 0.95000017 0.35000002 0.95000017 0.40000004 0.95000017 0.45000005 0.95000017
		 0.50000006 0.95000017 0.55000007 0.95000017 0.60000008 0.95000017 0.6500001 0.95000017
		 0.70000011 0.95000017 0.75000012 0.95000017 0.80000013 0.95000017 0.85000014 0.95000017
		 0.90000015 0.95000017 0.95000017 0.95000017 1.000000119209 0.95000017 0.025 0 0.075000003
		 0 0.125 0 0.17500001 0 0.22500001 0 0.27500001 0 0.32500002 0 0.375 0 0.42500001
		 0 0.47500002 0 0.52499998 0 0.57499999 0 0.625 0 0.67500001 0 0.72499996 0 0.77499998
		 0 0.82499999 0 0.875 0 0.92500001 0 0.97499996 0 0.025 1 0.075000003 1 0.125 1 0.17500001
		 1 0.22500001 1 0.27500001 1 0.32500002 1 0.375 1 0.42500001 1 0.47500002 1 0.52499998
		 1 0.57499999 1 0.625 1 0.67500001 1 0.72499996 1 0.77499998 1 0.82499999 1 0.875
		 1 0.92500001 1 0.97499996 1;
	setAttr ".cuvs" -type "string" "map1";
	setAttr ".dcc" -type "string" "Ambient+Diffuse";
	setAttr ".covm[0]"  0 1 1;
	setAttr ".cdvm[0]"  0 1 1;
	setAttr -s 382 ".vt";
	setAttr ".vt[0:165]"  0.14877813 -0.98768836 -0.048340943 0.12655823 -0.98768836 -0.091949932
		 0.091949932 -0.98768836 -0.12655823 0.048340935 -0.98768836 -0.14877811 0 -0.98768836 -0.15643455
		 -0.048340935 -0.98768836 -0.1487781 -0.091949917 -0.98768836 -0.1265582 -0.12655818 -0.98768836 -0.091949902
		 -0.14877807 -0.98768836 -0.048340924 -0.15643452 -0.98768836 0 -0.14877807 -0.98768836 0.048340924
		 -0.12655818 -0.98768836 0.091949895 -0.091949895 -0.98768836 0.12655817 -0.048340924 -0.98768836 0.14877805
		 -4.6621107e-09 -0.98768836 0.15643449 0.048340909 -0.98768836 0.14877804 0.09194988 -0.98768836 0.12655815
		 0.12655815 -0.98768836 0.091949888 0.14877804 -0.98768836 0.048340913 0.15643448 -0.98768836 0
		 0.29389283 -0.95105654 -0.095491566 0.25000018 -0.95105654 -0.18163574 0.18163574 -0.95105654 -0.25000015
		 0.095491551 -0.95105654 -0.2938928 0 -0.95105654 -0.30901715 -0.095491551 -0.95105654 -0.29389277
		 -0.18163571 -0.95105654 -0.25000009 -0.25000009 -0.95105654 -0.18163569 -0.29389271 -0.95105654 -0.095491529
		 -0.30901706 -0.95105654 0 -0.29389271 -0.95105654 0.095491529 -0.25000006 -0.95105654 0.18163568
		 -0.18163568 -0.95105654 0.25000006 -0.095491529 -0.95105654 0.29389268 -9.2094243e-09 -0.95105654 0.30901703
		 0.095491499 -0.95105654 0.29389265 0.18163563 -0.95105654 0.25000003 0.25 -0.95105654 0.18163565
		 0.29389265 -0.95105654 0.095491506 0.309017 -0.95105654 0 0.43177092 -0.89100653 -0.14029087
		 0.36728629 -0.89100653 -0.2668491 0.2668491 -0.89100653 -0.36728626 0.14029086 -0.89100653 -0.43177086
		 0 -0.89100653 -0.45399073 -0.14029086 -0.89100653 -0.43177083 -0.26684904 -0.89100653 -0.36728618
		 -0.36728615 -0.89100653 -0.26684901 -0.43177077 -0.89100653 -0.14029081 -0.45399064 -0.89100653 0
		 -0.43177077 -0.89100653 0.14029081 -0.36728612 -0.89100653 0.26684898 -0.26684898 -0.89100653 0.36728612
		 -0.14029081 -0.89100653 0.43177071 -1.3529972e-08 -0.89100653 0.45399058 0.14029078 -0.89100653 0.43177068
		 0.26684892 -0.89100653 0.36728609 0.36728606 -0.89100653 0.26684895 0.43177065 -0.89100653 0.1402908
		 0.45399052 -0.89100653 0 0.55901736 -0.809017 -0.18163574 0.47552857 -0.809017 -0.34549171
		 0.34549171 -0.809017 -0.47552854 0.18163572 -0.809017 -0.5590173 0 -0.809017 -0.58778554
		 -0.18163572 -0.809017 -0.55901724 -0.34549165 -0.809017 -0.47552842 -0.47552839 -0.809017 -0.34549159
		 -0.55901712 -0.809017 -0.18163566 -0.58778536 -0.809017 0 -0.55901712 -0.809017 0.18163566
		 -0.47552836 -0.809017 0.34549156 -0.34549156 -0.809017 0.47552833 -0.18163566 -0.809017 0.55901706
		 -1.7517365e-08 -0.809017 0.5877853 0.18163562 -0.809017 0.55901706 0.3454915 -0.809017 0.4755283
		 0.47552827 -0.809017 0.34549153 0.559017 -0.809017 0.18163563 0.58778524 -0.809017 0
		 0.67249894 -0.70710677 -0.21850814 0.57206178 -0.70710677 -0.41562718 0.41562718 -0.70710677 -0.57206172
		 0.21850812 -0.70710677 -0.67249888 0 -0.70710677 -0.70710713 -0.21850812 -0.70710677 -0.67249882
		 -0.41562709 -0.70710677 -0.5720616 -0.57206154 -0.70710677 -0.41562706 -0.6724987 -0.70710677 -0.21850805
		 -0.70710695 -0.70710677 0 -0.6724987 -0.70710677 0.21850805 -0.57206154 -0.70710677 0.415627
		 -0.415627 -0.70710677 0.57206148 -0.21850805 -0.70710677 0.67249858 -2.1073424e-08 -0.70710677 0.70710683
		 0.21850799 -0.70710677 0.67249858 0.41562691 -0.70710677 0.57206142 0.57206142 -0.70710677 0.41562697
		 0.67249852 -0.70710677 0.21850802 0.70710677 -0.70710677 0 0.7694214 -0.58778524 -0.25000015
		 0.65450895 -0.58778524 -0.47552854 0.47552854 -0.58778524 -0.65450889 0.25000012 -0.58778524 -0.76942128
		 0 -0.58778524 -0.80901736 -0.25000012 -0.58778524 -0.76942122 -0.47552845 -0.58778524 -0.65450877
		 -0.65450871 -0.58778524 -0.47552839 -0.7694211 -0.58778524 -0.25000006 -0.80901718 -0.58778524 0
		 -0.7694211 -0.58778524 0.25000006 -0.65450865 -0.58778524 0.47552836 -0.47552836 -0.58778524 0.65450859
		 -0.25000006 -0.58778524 0.76942098 -2.4110586e-08 -0.58778524 0.80901712 0.24999999 -0.58778524 0.76942098
		 0.47552827 -0.58778524 0.65450853 0.65450853 -0.58778524 0.4755283 0.76942092 -0.58778524 0.25
		 0.809017 -0.58778524 0 0.8473981 -0.45399052 -0.27533633 0.72083992 -0.45399052 -0.5237208
		 0.5237208 -0.45399052 -0.72083986 0.2753363 -0.45399052 -0.84739798 0 -0.45399052 -0.89100695
		 -0.2753363 -0.45399052 -0.84739798 -0.52372068 -0.45399052 -0.72083968 -0.72083962 -0.45399052 -0.52372062
		 -0.8473978 -0.45399052 -0.27533621 -0.89100677 -0.45399052 0 -0.8473978 -0.45399052 0.27533621
		 -0.72083962 -0.45399052 0.52372062 -0.52372062 -0.45399052 0.72083956 -0.27533621 -0.45399052 0.84739769
		 -2.6554064e-08 -0.45399052 0.89100665 0.27533615 -0.45399052 0.84739763 0.5237205 -0.45399052 0.7208395
		 0.72083944 -0.45399052 0.52372056 0.84739757 -0.45399052 0.27533618 0.89100653 -0.45399052 0
		 0.90450913 -0.30901697 -0.2938928 0.7694214 -0.30901697 -0.55901736 0.55901736 -0.30901697 -0.76942134
		 0.29389277 -0.30901697 -0.90450901 0 -0.30901697 -0.95105702 -0.29389277 -0.30901697 -0.90450895
		 -0.55901724 -0.30901697 -0.76942122 -0.76942116 -0.30901697 -0.55901718 -0.90450877 -0.30901697 -0.29389271
		 -0.95105678 -0.30901697 0 -0.90450877 -0.30901697 0.29389271 -0.7694211 -0.30901697 0.55901712
		 -0.55901712 -0.30901697 0.76942104 -0.29389271 -0.30901697 0.90450865 -2.8343694e-08 -0.30901697 0.95105666
		 0.29389262 -0.30901697 0.90450859 0.559017 -0.30901697 0.76942098 0.76942092 -0.30901697 0.55901706
		 0.90450853 -0.30901697 0.29389265 0.95105654 -0.30901697 0 0.93934804 -0.15643437 -0.30521268
		 0.79905719 -0.15643437 -0.580549 0.580549 -0.15643437 -0.79905713 0.30521265 -0.15643437 -0.93934792
		 0 -0.15643437 -0.98768884 -0.30521265 -0.15643437 -0.93934786;
	setAttr ".vt[166:331]" -0.58054888 -0.15643437 -0.79905695 -0.79905689 -0.15643437 -0.58054882
		 -0.93934768 -0.15643437 -0.30521256 -0.9876886 -0.15643437 0 -0.93934768 -0.15643437 0.30521256
		 -0.79905683 -0.15643437 0.58054876 -0.58054876 -0.15643437 0.79905677 -0.30521256 -0.15643437 0.93934757
		 -2.9435407e-08 -0.15643437 0.98768848 0.30521247 -0.15643437 0.93934757 0.58054864 -0.15643437 0.79905671
		 0.79905665 -0.15643437 0.5805487 0.93934751 -0.15643437 0.3052125 0.98768836 -0.15643437 0
		 0.95105714 0 -0.30901718 0.80901754 0 -0.5877856 0.5877856 0 -0.80901748 0.30901715 0 -0.95105702
		 0 0 -1.000000476837 -0.30901715 0 -0.95105696 -0.58778548 0 -0.8090173 -0.80901724 0 -0.58778542
		 -0.95105678 0 -0.30901706 -1.000000238419 0 0 -0.95105678 0 0.30901706 -0.80901718 0 0.58778536
		 -0.58778536 0 0.80901712 -0.30901706 0 0.95105666 -2.9802322e-08 0 1.000000119209
		 0.30901697 0 0.9510566 0.58778524 0 0.80901706 0.809017 0 0.5877853 0.95105654 0 0.309017
		 1 0 0 0.93934804 0.15643437 -0.30521268 0.79905719 0.15643437 -0.580549 0.580549 0.15643437 -0.79905713
		 0.30521265 0.15643437 -0.93934792 0 0.15643437 -0.98768884 -0.30521265 0.15643437 -0.93934786
		 -0.58054888 0.15643437 -0.79905695 -0.79905689 0.15643437 -0.58054882 -0.93934768 0.15643437 -0.30521256
		 -0.9876886 0.15643437 0 -0.93934768 0.15643437 0.30521256 -0.79905683 0.15643437 0.58054876
		 -0.58054876 0.15643437 0.79905677 -0.30521256 0.15643437 0.93934757 -2.9435407e-08 0.15643437 0.98768848
		 0.30521247 0.15643437 0.93934757 0.58054864 0.15643437 0.79905671 0.79905665 0.15643437 0.5805487
		 0.93934751 0.15643437 0.3052125 0.98768836 0.15643437 0 0.90450913 0.30901697 -0.2938928
		 0.7694214 0.30901697 -0.55901736 0.55901736 0.30901697 -0.76942134 0.29389277 0.30901697 -0.90450901
		 0 0.30901697 -0.95105702 -0.29389277 0.30901697 -0.90450895 -0.55901724 0.30901697 -0.76942122
		 -0.76942116 0.30901697 -0.55901718 -0.90450877 0.30901697 -0.29389271 -0.95105678 0.30901697 0
		 -0.90450877 0.30901697 0.29389271 -0.7694211 0.30901697 0.55901712 -0.55901712 0.30901697 0.76942104
		 -0.29389271 0.30901697 0.90450865 -2.8343694e-08 0.30901697 0.95105666 0.29389262 0.30901697 0.90450859
		 0.559017 0.30901697 0.76942098 0.76942092 0.30901697 0.55901706 0.90450853 0.30901697 0.29389265
		 0.95105654 0.30901697 0 0.8473981 0.45399052 -0.27533633 0.72083992 0.45399052 -0.5237208
		 0.5237208 0.45399052 -0.72083986 0.2753363 0.45399052 -0.84739798 0 0.45399052 -0.89100695
		 -0.2753363 0.45399052 -0.84739798 -0.52372068 0.45399052 -0.72083968 -0.72083962 0.45399052 -0.52372062
		 -0.8473978 0.45399052 -0.27533621 -0.89100677 0.45399052 0 -0.8473978 0.45399052 0.27533621
		 -0.72083962 0.45399052 0.52372062 -0.52372062 0.45399052 0.72083956 -0.27533621 0.45399052 0.84739769
		 -2.6554064e-08 0.45399052 0.89100665 0.27533615 0.45399052 0.84739763 0.5237205 0.45399052 0.7208395
		 0.72083944 0.45399052 0.52372056 0.84739757 0.45399052 0.27533618 0.89100653 0.45399052 0
		 0.7694214 0.58778524 -0.25000015 0.65450895 0.58778524 -0.47552854 0.47552854 0.58778524 -0.65450889
		 0.25000012 0.58778524 -0.76942128 0 0.58778524 -0.80901736 -0.25000012 0.58778524 -0.76942122
		 -0.47552845 0.58778524 -0.65450877 -0.65450871 0.58778524 -0.47552839 -0.7694211 0.58778524 -0.25000006
		 -0.80901718 0.58778524 0 -0.7694211 0.58778524 0.25000006 -0.65450865 0.58778524 0.47552836
		 -0.47552836 0.58778524 0.65450859 -0.25000006 0.58778524 0.76942098 -2.4110586e-08 0.58778524 0.80901712
		 0.24999999 0.58778524 0.76942098 0.47552827 0.58778524 0.65450853 0.65450853 0.58778524 0.4755283
		 0.76942092 0.58778524 0.25 0.809017 0.58778524 0 0.67249894 0.70710677 -0.21850814
		 0.57206178 0.70710677 -0.41562718 0.41562718 0.70710677 -0.57206172 0.21850812 0.70710677 -0.67249888
		 0 0.70710677 -0.70710713 -0.21850812 0.70710677 -0.67249882 -0.41562709 0.70710677 -0.5720616
		 -0.57206154 0.70710677 -0.41562706 -0.6724987 0.70710677 -0.21850805 -0.70710695 0.70710677 0
		 -0.6724987 0.70710677 0.21850805 -0.57206154 0.70710677 0.415627 -0.415627 0.70710677 0.57206148
		 -0.21850805 0.70710677 0.67249858 -2.1073424e-08 0.70710677 0.70710683 0.21850799 0.70710677 0.67249858
		 0.41562691 0.70710677 0.57206142 0.57206142 0.70710677 0.41562697 0.67249852 0.70710677 0.21850802
		 0.70710677 0.70710677 0 0.55901736 0.809017 -0.18163574 0.47552857 0.809017 -0.34549171
		 0.34549171 0.809017 -0.47552854 0.18163572 0.809017 -0.5590173 0 0.809017 -0.58778554
		 -0.18163572 0.809017 -0.55901724 -0.34549165 0.809017 -0.47552842 -0.47552839 0.809017 -0.34549159
		 -0.55901712 0.809017 -0.18163566 -0.58778536 0.809017 0 -0.55901712 0.809017 0.18163566
		 -0.47552836 0.809017 0.34549156 -0.34549156 0.809017 0.47552833 -0.18163566 0.809017 0.55901706
		 -1.7517365e-08 0.809017 0.5877853 0.18163562 0.809017 0.55901706 0.3454915 0.809017 0.4755283
		 0.47552827 0.809017 0.34549153 0.559017 0.809017 0.18163563 0.58778524 0.809017 0
		 0.43177092 0.89100653 -0.14029087 0.36728629 0.89100653 -0.2668491 0.2668491 0.89100653 -0.36728626
		 0.14029086 0.89100653 -0.43177086 0 0.89100653 -0.45399073 -0.14029086 0.89100653 -0.43177083
		 -0.26684904 0.89100653 -0.36728618 -0.36728615 0.89100653 -0.26684901 -0.43177077 0.89100653 -0.14029081
		 -0.45399064 0.89100653 0 -0.43177077 0.89100653 0.14029081 -0.36728612 0.89100653 0.26684898;
	setAttr ".vt[332:381]" -0.26684898 0.89100653 0.36728612 -0.14029081 0.89100653 0.43177071
		 -1.3529972e-08 0.89100653 0.45399058 0.14029078 0.89100653 0.43177068 0.26684892 0.89100653 0.36728609
		 0.36728606 0.89100653 0.26684895 0.43177065 0.89100653 0.1402908 0.45399052 0.89100653 0
		 0.29389283 0.95105654 -0.095491566 0.25000018 0.95105654 -0.18163574 0.18163574 0.95105654 -0.25000015
		 0.095491551 0.95105654 -0.2938928 0 0.95105654 -0.30901715 -0.095491551 0.95105654 -0.29389277
		 -0.18163571 0.95105654 -0.25000009 -0.25000009 0.95105654 -0.18163569 -0.29389271 0.95105654 -0.095491529
		 -0.30901706 0.95105654 0 -0.29389271 0.95105654 0.095491529 -0.25000006 0.95105654 0.18163568
		 -0.18163568 0.95105654 0.25000006 -0.095491529 0.95105654 0.29389268 -9.2094243e-09 0.95105654 0.30901703
		 0.095491499 0.95105654 0.29389265 0.18163563 0.95105654 0.25000003 0.25 0.95105654 0.18163565
		 0.29389265 0.95105654 0.095491506 0.309017 0.95105654 0 0.14877813 0.98768836 -0.048340943
		 0.12655823 0.98768836 -0.091949932 0.091949932 0.98768836 -0.12655823 0.048340935 0.98768836 -0.14877811
		 0 0.98768836 -0.15643455 -0.048340935 0.98768836 -0.1487781 -0.091949917 0.98768836 -0.1265582
		 -0.12655818 0.98768836 -0.091949902 -0.14877807 0.98768836 -0.048340924 -0.15643452 0.98768836 0
		 -0.14877807 0.98768836 0.048340924 -0.12655818 0.98768836 0.091949895 -0.091949895 0.98768836 0.12655817
		 -0.048340924 0.98768836 0.14877805 -4.6621107e-09 0.98768836 0.15643449 0.048340909 0.98768836 0.14877804
		 0.09194988 0.98768836 0.12655815 0.12655815 0.98768836 0.091949888 0.14877804 0.98768836 0.048340913
		 0.15643448 0.98768836 0 0 -1 0 0 1 0;
	setAttr -s 780 ".ed";
	setAttr ".ed[0:165]"  0 1 1 1 2 1 2 3 1 3 4 1 4 5 1 5 6 1 6 7 1 7 8 1 8 9 1
		 9 10 1 10 11 1 11 12 1 12 13 1 13 14 1 14 15 1 15 16 1 16 17 1 17 18 1 18 19 1 19 0 1
		 20 21 1 21 22 1 22 23 1 23 24 1 24 25 1 25 26 1 26 27 1 27 28 1 28 29 1 29 30 1 30 31 1
		 31 32 1 32 33 1 33 34 1 34 35 1 35 36 1 36 37 1 37 38 1 38 39 1 39 20 1 40 41 1 41 42 1
		 42 43 1 43 44 1 44 45 1 45 46 1 46 47 1 47 48 1 48 49 1 49 50 1 50 51 1 51 52 1 52 53 1
		 53 54 1 54 55 1 55 56 1 56 57 1 57 58 1 58 59 1 59 40 1 60 61 1 61 62 1 62 63 1 63 64 1
		 64 65 1 65 66 1 66 67 1 67 68 1 68 69 1 69 70 1 70 71 1 71 72 1 72 73 1 73 74 1 74 75 1
		 75 76 1 76 77 1 77 78 1 78 79 1 79 60 1 80 81 1 81 82 1 82 83 1 83 84 1 84 85 1 85 86 1
		 86 87 1 87 88 1 88 89 1 89 90 1 90 91 1 91 92 1 92 93 1 93 94 1 94 95 1 95 96 1 96 97 1
		 97 98 1 98 99 1 99 80 1 100 101 1 101 102 1 102 103 1 103 104 1 104 105 1 105 106 1
		 106 107 1 107 108 1 108 109 1 109 110 1 110 111 1 111 112 1 112 113 1 113 114 1 114 115 1
		 115 116 1 116 117 1 117 118 1 118 119 1 119 100 1 120 121 1 121 122 1 122 123 1 123 124 1
		 124 125 1 125 126 1 126 127 1 127 128 1 128 129 1 129 130 1 130 131 1 131 132 1 132 133 1
		 133 134 1 134 135 1 135 136 1 136 137 1 137 138 1 138 139 1 139 120 1 140 141 1 141 142 1
		 142 143 1 143 144 1 144 145 1 145 146 1 146 147 1 147 148 1 148 149 1 149 150 1 150 151 1
		 151 152 1 152 153 1 153 154 1 154 155 1 155 156 1 156 157 1 157 158 1 158 159 1 159 140 1
		 160 161 1 161 162 1 162 163 1 163 164 1 164 165 1 165 166 1;
	setAttr ".ed[166:331]" 166 167 1 167 168 1 168 169 1 169 170 1 170 171 1 171 172 1
		 172 173 1 173 174 1 174 175 1 175 176 1 176 177 1 177 178 1 178 179 1 179 160 1 180 181 1
		 181 182 1 182 183 1 183 184 1 184 185 1 185 186 1 186 187 1 187 188 1 188 189 1 189 190 1
		 190 191 1 191 192 1 192 193 1 193 194 1 194 195 1 195 196 1 196 197 1 197 198 1 198 199 1
		 199 180 1 200 201 1 201 202 1 202 203 1 203 204 1 204 205 1 205 206 1 206 207 1 207 208 1
		 208 209 1 209 210 1 210 211 1 211 212 1 212 213 1 213 214 1 214 215 1 215 216 1 216 217 1
		 217 218 1 218 219 1 219 200 1 220 221 1 221 222 1 222 223 1 223 224 1 224 225 1 225 226 1
		 226 227 1 227 228 1 228 229 1 229 230 1 230 231 1 231 232 1 232 233 1 233 234 1 234 235 1
		 235 236 1 236 237 1 237 238 1 238 239 1 239 220 1 240 241 1 241 242 1 242 243 1 243 244 1
		 244 245 1 245 246 1 246 247 1 247 248 1 248 249 1 249 250 1 250 251 1 251 252 1 252 253 1
		 253 254 1 254 255 1 255 256 1 256 257 1 257 258 1 258 259 1 259 240 1 260 261 1 261 262 1
		 262 263 1 263 264 1 264 265 1 265 266 1 266 267 1 267 268 1 268 269 1 269 270 1 270 271 1
		 271 272 1 272 273 1 273 274 1 274 275 1 275 276 1 276 277 1 277 278 1 278 279 1 279 260 1
		 280 281 1 281 282 1 282 283 1 283 284 1 284 285 1 285 286 1 286 287 1 287 288 1 288 289 1
		 289 290 1 290 291 1 291 292 1 292 293 1 293 294 1 294 295 1 295 296 1 296 297 1 297 298 1
		 298 299 1 299 280 1 300 301 1 301 302 1 302 303 1 303 304 1 304 305 1 305 306 1 306 307 1
		 307 308 1 308 309 1 309 310 1 310 311 1 311 312 1 312 313 1 313 314 1 314 315 1 315 316 1
		 316 317 1 317 318 1 318 319 1 319 300 1 320 321 1 321 322 1 322 323 1 323 324 1 324 325 1
		 325 326 1 326 327 1 327 328 1 328 329 1 329 330 1 330 331 1 331 332 1;
	setAttr ".ed[332:497]" 332 333 1 333 334 1 334 335 1 335 336 1 336 337 1 337 338 1
		 338 339 1 339 320 1 340 341 1 341 342 1 342 343 1 343 344 1 344 345 1 345 346 1 346 347 1
		 347 348 1 348 349 1 349 350 1 350 351 1 351 352 1 352 353 1 353 354 1 354 355 1 355 356 1
		 356 357 1 357 358 1 358 359 1 359 340 1 360 361 1 361 362 1 362 363 1 363 364 1 364 365 1
		 365 366 1 366 367 1 367 368 1 368 369 1 369 370 1 370 371 1 371 372 1 372 373 1 373 374 1
		 374 375 1 375 376 1 376 377 1 377 378 1 378 379 1 379 360 1 0 20 1 1 21 1 2 22 1
		 3 23 1 4 24 1 5 25 1 6 26 1 7 27 1 8 28 1 9 29 1 10 30 1 11 31 1 12 32 1 13 33 1
		 14 34 1 15 35 1 16 36 1 17 37 1 18 38 1 19 39 1 20 40 1 21 41 1 22 42 1 23 43 1 24 44 1
		 25 45 1 26 46 1 27 47 1 28 48 1 29 49 1 30 50 1 31 51 1 32 52 1 33 53 1 34 54 1 35 55 1
		 36 56 1 37 57 1 38 58 1 39 59 1 40 60 1 41 61 1 42 62 1 43 63 1 44 64 1 45 65 1 46 66 1
		 47 67 1 48 68 1 49 69 1 50 70 1 51 71 1 52 72 1 53 73 1 54 74 1 55 75 1 56 76 1 57 77 1
		 58 78 1 59 79 1 60 80 1 61 81 1 62 82 1 63 83 1 64 84 1 65 85 1 66 86 1 67 87 1 68 88 1
		 69 89 1 70 90 1 71 91 1 72 92 1 73 93 1 74 94 1 75 95 1 76 96 1 77 97 1 78 98 1 79 99 1
		 80 100 1 81 101 1 82 102 1 83 103 1 84 104 1 85 105 1 86 106 1 87 107 1 88 108 1
		 89 109 1 90 110 1 91 111 1 92 112 1 93 113 1 94 114 1 95 115 1 96 116 1 97 117 1
		 98 118 1 99 119 1 100 120 1 101 121 1 102 122 1 103 123 1 104 124 1 105 125 1 106 126 1
		 107 127 1 108 128 1 109 129 1 110 130 1 111 131 1 112 132 1 113 133 1 114 134 1 115 135 1
		 116 136 1 117 137 1;
	setAttr ".ed[498:663]" 118 138 1 119 139 1 120 140 1 121 141 1 122 142 1 123 143 1
		 124 144 1 125 145 1 126 146 1 127 147 1 128 148 1 129 149 1 130 150 1 131 151 1 132 152 1
		 133 153 1 134 154 1 135 155 1 136 156 1 137 157 1 138 158 1 139 159 1 140 160 1 141 161 1
		 142 162 1 143 163 1 144 164 1 145 165 1 146 166 1 147 167 1 148 168 1 149 169 1 150 170 1
		 151 171 1 152 172 1 153 173 1 154 174 1 155 175 1 156 176 1 157 177 1 158 178 1 159 179 1
		 160 180 1 161 181 1 162 182 1 163 183 1 164 184 1 165 185 1 166 186 1 167 187 1 168 188 1
		 169 189 1 170 190 1 171 191 1 172 192 1 173 193 1 174 194 1 175 195 1 176 196 1 177 197 1
		 178 198 1 179 199 1 180 200 1 181 201 1 182 202 1 183 203 1 184 204 1 185 205 1 186 206 1
		 187 207 1 188 208 1 189 209 1 190 210 1 191 211 1 192 212 1 193 213 1 194 214 1 195 215 1
		 196 216 1 197 217 1 198 218 1 199 219 1 200 220 1 201 221 1 202 222 1 203 223 1 204 224 1
		 205 225 1 206 226 1 207 227 1 208 228 1 209 229 1 210 230 1 211 231 1 212 232 1 213 233 1
		 214 234 1 215 235 1 216 236 1 217 237 1 218 238 1 219 239 1 220 240 1 221 241 1 222 242 1
		 223 243 1 224 244 1 225 245 1 226 246 1 227 247 1 228 248 1 229 249 1 230 250 1 231 251 1
		 232 252 1 233 253 1 234 254 1 235 255 1 236 256 1 237 257 1 238 258 1 239 259 1 240 260 1
		 241 261 1 242 262 1 243 263 1 244 264 1 245 265 1 246 266 1 247 267 1 248 268 1 249 269 1
		 250 270 1 251 271 1 252 272 1 253 273 1 254 274 1 255 275 1 256 276 1 257 277 1 258 278 1
		 259 279 1 260 280 1 261 281 1 262 282 1 263 283 1 264 284 1 265 285 1 266 286 1 267 287 1
		 268 288 1 269 289 1 270 290 1 271 291 1 272 292 1 273 293 1 274 294 1 275 295 1 276 296 1
		 277 297 1 278 298 1 279 299 1 280 300 1 281 301 1 282 302 1 283 303 1;
	setAttr ".ed[664:779]" 284 304 1 285 305 1 286 306 1 287 307 1 288 308 1 289 309 1
		 290 310 1 291 311 1 292 312 1 293 313 1 294 314 1 295 315 1 296 316 1 297 317 1 298 318 1
		 299 319 1 300 320 1 301 321 1 302 322 1 303 323 1 304 324 1 305 325 1 306 326 1 307 327 1
		 308 328 1 309 329 1 310 330 1 311 331 1 312 332 1 313 333 1 314 334 1 315 335 1 316 336 1
		 317 337 1 318 338 1 319 339 1 320 340 1 321 341 1 322 342 1 323 343 1 324 344 1 325 345 1
		 326 346 1 327 347 1 328 348 1 329 349 1 330 350 1 331 351 1 332 352 1 333 353 1 334 354 1
		 335 355 1 336 356 1 337 357 1 338 358 1 339 359 1 340 360 1 341 361 1 342 362 1 343 363 1
		 344 364 1 345 365 1 346 366 1 347 367 1 348 368 1 349 369 1 350 370 1 351 371 1 352 372 1
		 353 373 1 354 374 1 355 375 1 356 376 1 357 377 1 358 378 1 359 379 1 380 0 1 380 1 1
		 380 2 1 380 3 1 380 4 1 380 5 1 380 6 1 380 7 1 380 8 1 380 9 1 380 10 1 380 11 1
		 380 12 1 380 13 1 380 14 1 380 15 1 380 16 1 380 17 1 380 18 1 380 19 1 360 381 1
		 361 381 1 362 381 1 363 381 1 364 381 1 365 381 1 366 381 1 367 381 1 368 381 1 369 381 1
		 370 381 1 371 381 1 372 381 1 373 381 1 374 381 1 375 381 1 376 381 1 377 381 1 378 381 1
		 379 381 1;
	setAttr -s 400 -ch 1560 ".fc[0:399]" -type "polyFaces" 
		f 4 0 381 -21 -381
		mu 0 4 0 1 22 21
		f 4 1 382 -22 -382
		mu 0 4 1 2 23 22
		f 4 2 383 -23 -383
		mu 0 4 2 3 24 23
		f 4 3 384 -24 -384
		mu 0 4 3 4 25 24
		f 4 4 385 -25 -385
		mu 0 4 4 5 26 25
		f 4 5 386 -26 -386
		mu 0 4 5 6 27 26
		f 4 6 387 -27 -387
		mu 0 4 6 7 28 27
		f 4 7 388 -28 -388
		mu 0 4 7 8 29 28
		f 4 8 389 -29 -389
		mu 0 4 8 9 30 29
		f 4 9 390 -30 -390
		mu 0 4 9 10 31 30
		f 4 10 391 -31 -391
		mu 0 4 10 11 32 31
		f 4 11 392 -32 -392
		mu 0 4 11 12 33 32
		f 4 12 393 -33 -393
		mu 0 4 12 13 34 33
		f 4 13 394 -34 -394
		mu 0 4 13 14 35 34
		f 4 14 395 -35 -395
		mu 0 4 14 15 36 35
		f 4 15 396 -36 -396
		mu 0 4 15 16 37 36
		f 4 16 397 -37 -397
		mu 0 4 16 17 38 37
		f 4 17 398 -38 -398
		mu 0 4 17 18 39 38
		f 4 18 399 -39 -399
		mu 0 4 18 19 40 39
		f 4 19 380 -40 -400
		mu 0 4 19 20 41 40
		f 4 20 401 -41 -401
		mu 0 4 21 22 43 42
		f 4 21 402 -42 -402
		mu 0 4 22 23 44 43
		f 4 22 403 -43 -403
		mu 0 4 23 24 45 44
		f 4 23 404 -44 -404
		mu 0 4 24 25 46 45
		f 4 24 405 -45 -405
		mu 0 4 25 26 47 46
		f 4 25 406 -46 -406
		mu 0 4 26 27 48 47
		f 4 26 407 -47 -407
		mu 0 4 27 28 49 48
		f 4 27 408 -48 -408
		mu 0 4 28 29 50 49
		f 4 28 409 -49 -409
		mu 0 4 29 30 51 50
		f 4 29 410 -50 -410
		mu 0 4 30 31 52 51
		f 4 30 411 -51 -411
		mu 0 4 31 32 53 52
		f 4 31 412 -52 -412
		mu 0 4 32 33 54 53
		f 4 32 413 -53 -413
		mu 0 4 33 34 55 54
		f 4 33 414 -54 -414
		mu 0 4 34 35 56 55
		f 4 34 415 -55 -415
		mu 0 4 35 36 57 56
		f 4 35 416 -56 -416
		mu 0 4 36 37 58 57
		f 4 36 417 -57 -417
		mu 0 4 37 38 59 58
		f 4 37 418 -58 -418
		mu 0 4 38 39 60 59
		f 4 38 419 -59 -419
		mu 0 4 39 40 61 60
		f 4 39 400 -60 -420
		mu 0 4 40 41 62 61
		f 4 40 421 -61 -421
		mu 0 4 42 43 64 63
		f 4 41 422 -62 -422
		mu 0 4 43 44 65 64
		f 4 42 423 -63 -423
		mu 0 4 44 45 66 65
		f 4 43 424 -64 -424
		mu 0 4 45 46 67 66
		f 4 44 425 -65 -425
		mu 0 4 46 47 68 67
		f 4 45 426 -66 -426
		mu 0 4 47 48 69 68
		f 4 46 427 -67 -427
		mu 0 4 48 49 70 69
		f 4 47 428 -68 -428
		mu 0 4 49 50 71 70
		f 4 48 429 -69 -429
		mu 0 4 50 51 72 71
		f 4 49 430 -70 -430
		mu 0 4 51 52 73 72
		f 4 50 431 -71 -431
		mu 0 4 52 53 74 73
		f 4 51 432 -72 -432
		mu 0 4 53 54 75 74
		f 4 52 433 -73 -433
		mu 0 4 54 55 76 75
		f 4 53 434 -74 -434
		mu 0 4 55 56 77 76
		f 4 54 435 -75 -435
		mu 0 4 56 57 78 77
		f 4 55 436 -76 -436
		mu 0 4 57 58 79 78
		f 4 56 437 -77 -437
		mu 0 4 58 59 80 79
		f 4 57 438 -78 -438
		mu 0 4 59 60 81 80
		f 4 58 439 -79 -439
		mu 0 4 60 61 82 81
		f 4 59 420 -80 -440
		mu 0 4 61 62 83 82
		f 4 60 441 -81 -441
		mu 0 4 63 64 85 84
		f 4 61 442 -82 -442
		mu 0 4 64 65 86 85
		f 4 62 443 -83 -443
		mu 0 4 65 66 87 86
		f 4 63 444 -84 -444
		mu 0 4 66 67 88 87
		f 4 64 445 -85 -445
		mu 0 4 67 68 89 88
		f 4 65 446 -86 -446
		mu 0 4 68 69 90 89
		f 4 66 447 -87 -447
		mu 0 4 69 70 91 90
		f 4 67 448 -88 -448
		mu 0 4 70 71 92 91
		f 4 68 449 -89 -449
		mu 0 4 71 72 93 92
		f 4 69 450 -90 -450
		mu 0 4 72 73 94 93
		f 4 70 451 -91 -451
		mu 0 4 73 74 95 94
		f 4 71 452 -92 -452
		mu 0 4 74 75 96 95
		f 4 72 453 -93 -453
		mu 0 4 75 76 97 96
		f 4 73 454 -94 -454
		mu 0 4 76 77 98 97
		f 4 74 455 -95 -455
		mu 0 4 77 78 99 98
		f 4 75 456 -96 -456
		mu 0 4 78 79 100 99
		f 4 76 457 -97 -457
		mu 0 4 79 80 101 100
		f 4 77 458 -98 -458
		mu 0 4 80 81 102 101
		f 4 78 459 -99 -459
		mu 0 4 81 82 103 102
		f 4 79 440 -100 -460
		mu 0 4 82 83 104 103
		f 4 80 461 -101 -461
		mu 0 4 84 85 106 105
		f 4 81 462 -102 -462
		mu 0 4 85 86 107 106
		f 4 82 463 -103 -463
		mu 0 4 86 87 108 107
		f 4 83 464 -104 -464
		mu 0 4 87 88 109 108
		f 4 84 465 -105 -465
		mu 0 4 88 89 110 109
		f 4 85 466 -106 -466
		mu 0 4 89 90 111 110
		f 4 86 467 -107 -467
		mu 0 4 90 91 112 111
		f 4 87 468 -108 -468
		mu 0 4 91 92 113 112
		f 4 88 469 -109 -469
		mu 0 4 92 93 114 113
		f 4 89 470 -110 -470
		mu 0 4 93 94 115 114
		f 4 90 471 -111 -471
		mu 0 4 94 95 116 115
		f 4 91 472 -112 -472
		mu 0 4 95 96 117 116
		f 4 92 473 -113 -473
		mu 0 4 96 97 118 117
		f 4 93 474 -114 -474
		mu 0 4 97 98 119 118
		f 4 94 475 -115 -475
		mu 0 4 98 99 120 119
		f 4 95 476 -116 -476
		mu 0 4 99 100 121 120
		f 4 96 477 -117 -477
		mu 0 4 100 101 122 121
		f 4 97 478 -118 -478
		mu 0 4 101 102 123 122
		f 4 98 479 -119 -479
		mu 0 4 102 103 124 123
		f 4 99 460 -120 -480
		mu 0 4 103 104 125 124
		f 4 100 481 -121 -481
		mu 0 4 105 106 127 126
		f 4 101 482 -122 -482
		mu 0 4 106 107 128 127
		f 4 102 483 -123 -483
		mu 0 4 107 108 129 128
		f 4 103 484 -124 -484
		mu 0 4 108 109 130 129
		f 4 104 485 -125 -485
		mu 0 4 109 110 131 130
		f 4 105 486 -126 -486
		mu 0 4 110 111 132 131
		f 4 106 487 -127 -487
		mu 0 4 111 112 133 132
		f 4 107 488 -128 -488
		mu 0 4 112 113 134 133
		f 4 108 489 -129 -489
		mu 0 4 113 114 135 134
		f 4 109 490 -130 -490
		mu 0 4 114 115 136 135
		f 4 110 491 -131 -491
		mu 0 4 115 116 137 136
		f 4 111 492 -132 -492
		mu 0 4 116 117 138 137
		f 4 112 493 -133 -493
		mu 0 4 117 118 139 138
		f 4 113 494 -134 -494
		mu 0 4 118 119 140 139
		f 4 114 495 -135 -495
		mu 0 4 119 120 141 140
		f 4 115 496 -136 -496
		mu 0 4 120 121 142 141
		f 4 116 497 -137 -497
		mu 0 4 121 122 143 142
		f 4 117 498 -138 -498
		mu 0 4 122 123 144 143
		f 4 118 499 -139 -499
		mu 0 4 123 124 145 144
		f 4 119 480 -140 -500
		mu 0 4 124 125 146 145
		f 4 120 501 -141 -501
		mu 0 4 126 127 148 147
		f 4 121 502 -142 -502
		mu 0 4 127 128 149 148
		f 4 122 503 -143 -503
		mu 0 4 128 129 150 149
		f 4 123 504 -144 -504
		mu 0 4 129 130 151 150
		f 4 124 505 -145 -505
		mu 0 4 130 131 152 151
		f 4 125 506 -146 -506
		mu 0 4 131 132 153 152
		f 4 126 507 -147 -507
		mu 0 4 132 133 154 153
		f 4 127 508 -148 -508
		mu 0 4 133 134 155 154
		f 4 128 509 -149 -509
		mu 0 4 134 135 156 155
		f 4 129 510 -150 -510
		mu 0 4 135 136 157 156
		f 4 130 511 -151 -511
		mu 0 4 136 137 158 157
		f 4 131 512 -152 -512
		mu 0 4 137 138 159 158
		f 4 132 513 -153 -513
		mu 0 4 138 139 160 159
		f 4 133 514 -154 -514
		mu 0 4 139 140 161 160
		f 4 134 515 -155 -515
		mu 0 4 140 141 162 161
		f 4 135 516 -156 -516
		mu 0 4 141 142 163 162
		f 4 136 517 -157 -517
		mu 0 4 142 143 164 163
		f 4 137 518 -158 -518
		mu 0 4 143 144 165 164
		f 4 138 519 -159 -519
		mu 0 4 144 145 166 165
		f 4 139 500 -160 -520
		mu 0 4 145 146 167 166
		f 4 140 521 -161 -521
		mu 0 4 147 148 169 168
		f 4 141 522 -162 -522
		mu 0 4 148 149 170 169
		f 4 142 523 -163 -523
		mu 0 4 149 150 171 170
		f 4 143 524 -164 -524
		mu 0 4 150 151 172 171
		f 4 144 525 -165 -525
		mu 0 4 151 152 173 172
		f 4 145 526 -166 -526
		mu 0 4 152 153 174 173
		f 4 146 527 -167 -527
		mu 0 4 153 154 175 174
		f 4 147 528 -168 -528
		mu 0 4 154 155 176 175
		f 4 148 529 -169 -529
		mu 0 4 155 156 177 176
		f 4 149 530 -170 -530
		mu 0 4 156 157 178 177
		f 4 150 531 -171 -531
		mu 0 4 157 158 179 178
		f 4 151 532 -172 -532
		mu 0 4 158 159 180 179
		f 4 152 533 -173 -533
		mu 0 4 159 160 181 180
		f 4 153 534 -174 -534
		mu 0 4 160 161 182 181
		f 4 154 535 -175 -535
		mu 0 4 161 162 183 182
		f 4 155 536 -176 -536
		mu 0 4 162 163 184 183
		f 4 156 537 -177 -537
		mu 0 4 163 164 185 184
		f 4 157 538 -178 -538
		mu 0 4 164 165 186 185
		f 4 158 539 -179 -539
		mu 0 4 165 166 187 186
		f 4 159 520 -180 -540
		mu 0 4 166 167 188 187
		f 4 160 541 -181 -541
		mu 0 4 168 169 190 189
		f 4 161 542 -182 -542
		mu 0 4 169 170 191 190
		f 4 162 543 -183 -543
		mu 0 4 170 171 192 191
		f 4 163 544 -184 -544
		mu 0 4 171 172 193 192
		f 4 164 545 -185 -545
		mu 0 4 172 173 194 193
		f 4 165 546 -186 -546
		mu 0 4 173 174 195 194
		f 4 166 547 -187 -547
		mu 0 4 174 175 196 195
		f 4 167 548 -188 -548
		mu 0 4 175 176 197 196
		f 4 168 549 -189 -549
		mu 0 4 176 177 198 197
		f 4 169 550 -190 -550
		mu 0 4 177 178 199 198
		f 4 170 551 -191 -551
		mu 0 4 178 179 200 199
		f 4 171 552 -192 -552
		mu 0 4 179 180 201 200
		f 4 172 553 -193 -553
		mu 0 4 180 181 202 201
		f 4 173 554 -194 -554
		mu 0 4 181 182 203 202
		f 4 174 555 -195 -555
		mu 0 4 182 183 204 203
		f 4 175 556 -196 -556
		mu 0 4 183 184 205 204
		f 4 176 557 -197 -557
		mu 0 4 184 185 206 205
		f 4 177 558 -198 -558
		mu 0 4 185 186 207 206
		f 4 178 559 -199 -559
		mu 0 4 186 187 208 207
		f 4 179 540 -200 -560
		mu 0 4 187 188 209 208
		f 4 180 561 -201 -561
		mu 0 4 189 190 211 210
		f 4 181 562 -202 -562
		mu 0 4 190 191 212 211
		f 4 182 563 -203 -563
		mu 0 4 191 192 213 212
		f 4 183 564 -204 -564
		mu 0 4 192 193 214 213
		f 4 184 565 -205 -565
		mu 0 4 193 194 215 214
		f 4 185 566 -206 -566
		mu 0 4 194 195 216 215
		f 4 186 567 -207 -567
		mu 0 4 195 196 217 216
		f 4 187 568 -208 -568
		mu 0 4 196 197 218 217
		f 4 188 569 -209 -569
		mu 0 4 197 198 219 218
		f 4 189 570 -210 -570
		mu 0 4 198 199 220 219
		f 4 190 571 -211 -571
		mu 0 4 199 200 221 220
		f 4 191 572 -212 -572
		mu 0 4 200 201 222 221
		f 4 192 573 -213 -573
		mu 0 4 201 202 223 222
		f 4 193 574 -214 -574
		mu 0 4 202 203 224 223
		f 4 194 575 -215 -575
		mu 0 4 203 204 225 224
		f 4 195 576 -216 -576
		mu 0 4 204 205 226 225
		f 4 196 577 -217 -577
		mu 0 4 205 206 227 226
		f 4 197 578 -218 -578
		mu 0 4 206 207 228 227
		f 4 198 579 -219 -579
		mu 0 4 207 208 229 228
		f 4 199 560 -220 -580
		mu 0 4 208 209 230 229
		f 4 200 581 -221 -581
		mu 0 4 210 211 232 231
		f 4 201 582 -222 -582
		mu 0 4 211 212 233 232
		f 4 202 583 -223 -583
		mu 0 4 212 213 234 233
		f 4 203 584 -224 -584
		mu 0 4 213 214 235 234
		f 4 204 585 -225 -585
		mu 0 4 214 215 236 235
		f 4 205 586 -226 -586
		mu 0 4 215 216 237 236
		f 4 206 587 -227 -587
		mu 0 4 216 217 238 237
		f 4 207 588 -228 -588
		mu 0 4 217 218 239 238
		f 4 208 589 -229 -589
		mu 0 4 218 219 240 239
		f 4 209 590 -230 -590
		mu 0 4 219 220 241 240
		f 4 210 591 -231 -591
		mu 0 4 220 221 242 241
		f 4 211 592 -232 -592
		mu 0 4 221 222 243 242
		f 4 212 593 -233 -593
		mu 0 4 222 223 244 243
		f 4 213 594 -234 -594
		mu 0 4 223 224 245 244
		f 4 214 595 -235 -595
		mu 0 4 224 225 246 245
		f 4 215 596 -236 -596
		mu 0 4 225 226 247 246
		f 4 216 597 -237 -597
		mu 0 4 226 227 248 247
		f 4 217 598 -238 -598
		mu 0 4 227 228 249 248
		f 4 218 599 -239 -599
		mu 0 4 228 229 250 249
		f 4 219 580 -240 -600
		mu 0 4 229 230 251 250
		f 4 220 601 -241 -601
		mu 0 4 231 232 253 252
		f 4 221 602 -242 -602
		mu 0 4 232 233 254 253
		f 4 222 603 -243 -603
		mu 0 4 233 234 255 254
		f 4 223 604 -244 -604
		mu 0 4 234 235 256 255
		f 4 224 605 -245 -605
		mu 0 4 235 236 257 256
		f 4 225 606 -246 -606
		mu 0 4 236 237 258 257
		f 4 226 607 -247 -607
		mu 0 4 237 238 259 258
		f 4 227 608 -248 -608
		mu 0 4 238 239 260 259
		f 4 228 609 -249 -609
		mu 0 4 239 240 261 260
		f 4 229 610 -250 -610
		mu 0 4 240 241 262 261
		f 4 230 611 -251 -611
		mu 0 4 241 242 263 262
		f 4 231 612 -252 -612
		mu 0 4 242 243 264 263
		f 4 232 613 -253 -613
		mu 0 4 243 244 265 264
		f 4 233 614 -254 -614
		mu 0 4 244 245 266 265
		f 4 234 615 -255 -615
		mu 0 4 245 246 267 266
		f 4 235 616 -256 -616
		mu 0 4 246 247 268 267
		f 4 236 617 -257 -617
		mu 0 4 247 248 269 268
		f 4 237 618 -258 -618
		mu 0 4 248 249 270 269
		f 4 238 619 -259 -619
		mu 0 4 249 250 271 270
		f 4 239 600 -260 -620
		mu 0 4 250 251 272 271
		f 4 240 621 -261 -621
		mu 0 4 252 253 274 273
		f 4 241 622 -262 -622
		mu 0 4 253 254 275 274
		f 4 242 623 -263 -623
		mu 0 4 254 255 276 275
		f 4 243 624 -264 -624
		mu 0 4 255 256 277 276
		f 4 244 625 -265 -625
		mu 0 4 256 257 278 277
		f 4 245 626 -266 -626
		mu 0 4 257 258 279 278
		f 4 246 627 -267 -627
		mu 0 4 258 259 280 279
		f 4 247 628 -268 -628
		mu 0 4 259 260 281 280
		f 4 248 629 -269 -629
		mu 0 4 260 261 282 281
		f 4 249 630 -270 -630
		mu 0 4 261 262 283 282
		f 4 250 631 -271 -631
		mu 0 4 262 263 284 283
		f 4 251 632 -272 -632
		mu 0 4 263 264 285 284
		f 4 252 633 -273 -633
		mu 0 4 264 265 286 285
		f 4 253 634 -274 -634
		mu 0 4 265 266 287 286
		f 4 254 635 -275 -635
		mu 0 4 266 267 288 287
		f 4 255 636 -276 -636
		mu 0 4 267 268 289 288
		f 4 256 637 -277 -637
		mu 0 4 268 269 290 289
		f 4 257 638 -278 -638
		mu 0 4 269 270 291 290
		f 4 258 639 -279 -639
		mu 0 4 270 271 292 291
		f 4 259 620 -280 -640
		mu 0 4 271 272 293 292
		f 4 260 641 -281 -641
		mu 0 4 273 274 295 294
		f 4 261 642 -282 -642
		mu 0 4 274 275 296 295
		f 4 262 643 -283 -643
		mu 0 4 275 276 297 296
		f 4 263 644 -284 -644
		mu 0 4 276 277 298 297
		f 4 264 645 -285 -645
		mu 0 4 277 278 299 298
		f 4 265 646 -286 -646
		mu 0 4 278 279 300 299
		f 4 266 647 -287 -647
		mu 0 4 279 280 301 300
		f 4 267 648 -288 -648
		mu 0 4 280 281 302 301
		f 4 268 649 -289 -649
		mu 0 4 281 282 303 302
		f 4 269 650 -290 -650
		mu 0 4 282 283 304 303
		f 4 270 651 -291 -651
		mu 0 4 283 284 305 304
		f 4 271 652 -292 -652
		mu 0 4 284 285 306 305
		f 4 272 653 -293 -653
		mu 0 4 285 286 307 306
		f 4 273 654 -294 -654
		mu 0 4 286 287 308 307
		f 4 274 655 -295 -655
		mu 0 4 287 288 309 308
		f 4 275 656 -296 -656
		mu 0 4 288 289 310 309
		f 4 276 657 -297 -657
		mu 0 4 289 290 311 310
		f 4 277 658 -298 -658
		mu 0 4 290 291 312 311
		f 4 278 659 -299 -659
		mu 0 4 291 292 313 312
		f 4 279 640 -300 -660
		mu 0 4 292 293 314 313
		f 4 280 661 -301 -661
		mu 0 4 294 295 316 315
		f 4 281 662 -302 -662
		mu 0 4 295 296 317 316
		f 4 282 663 -303 -663
		mu 0 4 296 297 318 317
		f 4 283 664 -304 -664
		mu 0 4 297 298 319 318
		f 4 284 665 -305 -665
		mu 0 4 298 299 320 319
		f 4 285 666 -306 -666
		mu 0 4 299 300 321 320
		f 4 286 667 -307 -667
		mu 0 4 300 301 322 321
		f 4 287 668 -308 -668
		mu 0 4 301 302 323 322
		f 4 288 669 -309 -669
		mu 0 4 302 303 324 323
		f 4 289 670 -310 -670
		mu 0 4 303 304 325 324
		f 4 290 671 -311 -671
		mu 0 4 304 305 326 325
		f 4 291 672 -312 -672
		mu 0 4 305 306 327 326
		f 4 292 673 -313 -673
		mu 0 4 306 307 328 327
		f 4 293 674 -314 -674
		mu 0 4 307 308 329 328
		f 4 294 675 -315 -675
		mu 0 4 308 309 330 329
		f 4 295 676 -316 -676
		mu 0 4 309 310 331 330
		f 4 296 677 -317 -677
		mu 0 4 310 311 332 331
		f 4 297 678 -318 -678
		mu 0 4 311 312 333 332
		f 4 298 679 -319 -679
		mu 0 4 312 313 334 333
		f 4 299 660 -320 -680
		mu 0 4 313 314 335 334
		f 4 300 681 -321 -681
		mu 0 4 315 316 337 336
		f 4 301 682 -322 -682
		mu 0 4 316 317 338 337
		f 4 302 683 -323 -683
		mu 0 4 317 318 339 338
		f 4 303 684 -324 -684
		mu 0 4 318 319 340 339
		f 4 304 685 -325 -685
		mu 0 4 319 320 341 340
		f 4 305 686 -326 -686
		mu 0 4 320 321 342 341
		f 4 306 687 -327 -687
		mu 0 4 321 322 343 342
		f 4 307 688 -328 -688
		mu 0 4 322 323 344 343
		f 4 308 689 -329 -689
		mu 0 4 323 324 345 344
		f 4 309 690 -330 -690
		mu 0 4 324 325 346 345
		f 4 310 691 -331 -691
		mu 0 4 325 326 347 346
		f 4 311 692 -332 -692
		mu 0 4 326 327 348 347
		f 4 312 693 -333 -693
		mu 0 4 327 328 349 348
		f 4 313 694 -334 -694
		mu 0 4 328 329 350 349
		f 4 314 695 -335 -695
		mu 0 4 329 330 351 350
		f 4 315 696 -336 -696
		mu 0 4 330 331 352 351
		f 4 316 697 -337 -697
		mu 0 4 331 332 353 352
		f 4 317 698 -338 -698
		mu 0 4 332 333 354 353
		f 4 318 699 -339 -699
		mu 0 4 333 334 355 354
		f 4 319 680 -340 -700
		mu 0 4 334 335 356 355
		f 4 320 701 -341 -701
		mu 0 4 336 337 358 357
		f 4 321 702 -342 -702
		mu 0 4 337 338 359 358
		f 4 322 703 -343 -703
		mu 0 4 338 339 360 359
		f 4 323 704 -344 -704
		mu 0 4 339 340 361 360
		f 4 324 705 -345 -705
		mu 0 4 340 341 362 361
		f 4 325 706 -346 -706
		mu 0 4 341 342 363 362
		f 4 326 707 -347 -707
		mu 0 4 342 343 364 363
		f 4 327 708 -348 -708
		mu 0 4 343 344 365 364
		f 4 328 709 -349 -709
		mu 0 4 344 345 366 365
		f 4 329 710 -350 -710
		mu 0 4 345 346 367 366
		f 4 330 711 -351 -711
		mu 0 4 346 347 368 367
		f 4 331 712 -352 -712
		mu 0 4 347 348 369 368
		f 4 332 713 -353 -713
		mu 0 4 348 349 370 369
		f 4 333 714 -354 -714
		mu 0 4 349 350 371 370
		f 4 334 715 -355 -715
		mu 0 4 350 351 372 371
		f 4 335 716 -356 -716
		mu 0 4 351 352 373 372
		f 4 336 717 -357 -717
		mu 0 4 352 353 374 373
		f 4 337 718 -358 -718
		mu 0 4 353 354 375 374
		f 4 338 719 -359 -719
		mu 0 4 354 355 376 375
		f 4 339 700 -360 -720
		mu 0 4 355 356 377 376
		f 4 340 721 -361 -721
		mu 0 4 357 358 379 378
		f 4 341 722 -362 -722
		mu 0 4 358 359 380 379
		f 4 342 723 -363 -723
		mu 0 4 359 360 381 380
		f 4 343 724 -364 -724
		mu 0 4 360 361 382 381
		f 4 344 725 -365 -725
		mu 0 4 361 362 383 382
		f 4 345 726 -366 -726
		mu 0 4 362 363 384 383
		f 4 346 727 -367 -727
		mu 0 4 363 364 385 384
		f 4 347 728 -368 -728
		mu 0 4 364 365 386 385
		f 4 348 729 -369 -729
		mu 0 4 365 366 387 386
		f 4 349 730 -370 -730
		mu 0 4 366 367 388 387
		f 4 350 731 -371 -731
		mu 0 4 367 368 389 388
		f 4 351 732 -372 -732
		mu 0 4 368 369 390 389
		f 4 352 733 -373 -733
		mu 0 4 369 370 391 390
		f 4 353 734 -374 -734
		mu 0 4 370 371 392 391
		f 4 354 735 -375 -735
		mu 0 4 371 372 393 392
		f 4 355 736 -376 -736
		mu 0 4 372 373 394 393
		f 4 356 737 -377 -737
		mu 0 4 373 374 395 394
		f 4 357 738 -378 -738
		mu 0 4 374 375 396 395
		f 4 358 739 -379 -739
		mu 0 4 375 376 397 396
		f 4 359 720 -380 -740
		mu 0 4 376 377 398 397
		f 3 -1 -741 741
		mu 0 3 1 0 399
		f 3 -2 -742 742
		mu 0 3 2 1 400
		f 3 -3 -743 743
		mu 0 3 3 2 401
		f 3 -4 -744 744
		mu 0 3 4 3 402
		f 3 -5 -745 745
		mu 0 3 5 4 403
		f 3 -6 -746 746
		mu 0 3 6 5 404
		f 3 -7 -747 747
		mu 0 3 7 6 405
		f 3 -8 -748 748
		mu 0 3 8 7 406
		f 3 -9 -749 749
		mu 0 3 9 8 407
		f 3 -10 -750 750
		mu 0 3 10 9 408
		f 3 -11 -751 751
		mu 0 3 11 10 409
		f 3 -12 -752 752
		mu 0 3 12 11 410
		f 3 -13 -753 753
		mu 0 3 13 12 411
		f 3 -14 -754 754
		mu 0 3 14 13 412
		f 3 -15 -755 755
		mu 0 3 15 14 413
		f 3 -16 -756 756
		mu 0 3 16 15 414
		f 3 -17 -757 757
		mu 0 3 17 16 415
		f 3 -18 -758 758
		mu 0 3 18 17 416
		f 3 -19 -759 759
		mu 0 3 19 18 417
		f 3 -20 -760 740
		mu 0 3 20 19 418
		f 3 360 761 -761
		mu 0 3 378 379 419
		f 3 361 762 -762
		mu 0 3 379 380 420
		f 3 362 763 -763
		mu 0 3 380 381 421
		f 3 363 764 -764
		mu 0 3 381 382 422
		f 3 364 765 -765
		mu 0 3 382 383 423
		f 3 365 766 -766
		mu 0 3 383 384 424
		f 3 366 767 -767
		mu 0 3 384 385 425
		f 3 367 768 -768
		mu 0 3 385 386 426
		f 3 368 769 -769
		mu 0 3 386 387 427
		f 3 369 770 -770
		mu 0 3 387 388 428
		f 3 370 771 -771
		mu 0 3 388 389 429
		f 3 371 772 -772
		mu 0 3 389 390 430
		f 3 372 773 -773
		mu 0 3 390 391 431
		f 3 373 774 -774
		mu 0 3 391 392 432
		f 3 374 775 -775
		mu 0 3 392 393 433
		f 3 375 776 -776
		mu 0 3 393 394 434
		f 3 376 777 -777
		mu 0 3 394 395 435
		f 3 377 778 -778
		mu 0 3 395 396 436
		f 3 378 779 -779
		mu 0 3 396 397 437
		f 3 379 760 -780
		mu 0 3 397 398 438;
	setAttr ".cd" -type "dataPolyComponent" Index_Data Edge 0 ;
	setAttr ".cvd" -type "dataPolyComponent" Index_Data Vertex 0 ;
	setAttr ".pd[0]" -type "dataPolyComponent" Index_Data UV 0 ;
	setAttr ".hfd" -type "dataPolyComponent" Index_Data Face 0 ;
	setAttr ".ai_translator" -type "string" "polymesh";
createNode transform -n "pCylinder10";
	rename -uid "84DCCB55-43F7-FCEF-BF87-F6A5C6004739";
	setAttr ".t" -type "double3" 2.2366831870808528 1.9398759068282336 -1.1517444918426609 ;
	setAttr ".r" -type "double3" 0 0 18.672462710615395 ;
	setAttr ".s" -type "double3" 0.17886369342541367 0.72530642992460048 0.17886369342541367 ;
createNode transform -n "transform22" -p "pCylinder10";
	rename -uid "3F3DFC14-4557-2CD9-2FA9-91AAC25D9CCF";
	setAttr ".v" no;
createNode mesh -n "pCylinderShape10" -p "transform22";
	rename -uid "040E9B38-4FDC-88CE-09FF-619770330FDB";
	setAttr -k off ".v";
	setAttr ".io" yes;
	setAttr ".iog[0].og[0].gcl" -type "componentList" 1 "f[0:59]";
	setAttr ".vir" yes;
	setAttr ".vif" yes;
	setAttr ".uvst[0].uvsn" -type "string" "map1";
	setAttr -s 84 ".uvst[0].uvsp[0:83]" -type "float2" 0.64860266 0.10796607
		 0.62640899 0.064408496 0.59184152 0.029841021 0.54828393 0.0076473355 0.5 -7.4505806e-08
		 0.45171607 0.0076473504 0.40815851 0.029841051 0.37359107 0.064408526 0.3513974 0.1079661
		 0.34374997 0.15625 0.3513974 0.2045339 0.37359107 0.24809146 0.40815854 0.28265893
		 0.4517161 0.3048526 0.5 0.3125 0.54828387 0.3048526 0.59184146 0.28265893 0.62640893
		 0.24809146 0.6486026 0.2045339 0.65625 0.15625 0.375 0.3125 0.38749999 0.3125 0.39999998
		 0.3125 0.41249996 0.3125 0.42499995 0.3125 0.43749994 0.3125 0.44999993 0.3125 0.46249992
		 0.3125 0.4749999 0.3125 0.48749989 0.3125 0.49999988 0.3125 0.51249987 0.3125 0.52499986
		 0.3125 0.53749985 0.3125 0.54999983 0.3125 0.56249982 0.3125 0.57499981 0.3125 0.5874998
		 0.3125 0.59999979 0.3125 0.61249977 0.3125 0.62499976 0.3125 0.375 0.68843985 0.38749999
		 0.68843985 0.39999998 0.68843985 0.41249996 0.68843985 0.42499995 0.68843985 0.43749994
		 0.68843985 0.44999993 0.68843985 0.46249992 0.68843985 0.4749999 0.68843985 0.48749989
		 0.68843985 0.49999988 0.68843985 0.51249987 0.68843985 0.52499986 0.68843985 0.53749985
		 0.68843985 0.54999983 0.68843985 0.56249982 0.68843985 0.57499981 0.68843985 0.5874998
		 0.68843985 0.59999979 0.68843985 0.61249977 0.68843985 0.62499976 0.68843985 0.64860266
		 0.79546607 0.62640899 0.75190848 0.59184152 0.71734101 0.54828393 0.69514734 0.5
		 0.68749994 0.45171607 0.69514734 0.40815851 0.71734107 0.37359107 0.75190854 0.3513974
		 0.79546607 0.34374997 0.84375 0.3513974 0.89203393 0.37359107 0.93559146 0.40815854
		 0.97015893 0.4517161 0.9923526 0.5 1 0.54828387 0.9923526 0.59184146 0.97015893 0.62640893
		 0.93559146 0.6486026 0.89203393 0.65625 0.84375 0.5 0.15000001 0.5 0.83749998;
	setAttr ".cuvs" -type "string" "map1";
	setAttr ".dcc" -type "string" "Ambient+Diffuse";
	setAttr ".covm[0]"  0 1 1;
	setAttr ".cdvm[0]"  0 1 1;
	setAttr -s 42 ".vt[0:41]"  0.95105714 -1 -0.30901718 0.80901754 -1 -0.5877856
		 0.5877856 -1 -0.80901748 0.30901715 -1 -0.95105702 0 -1 -1.000000476837 -0.30901715 -1 -0.95105696
		 -0.58778548 -1 -0.8090173 -0.80901724 -1 -0.58778542 -0.95105678 -1 -0.30901706 -1.000000238419 -1 0
		 -0.95105678 -1 0.30901706 -0.80901718 -1 0.58778536 -0.58778536 -1 0.80901712 -0.30901706 -1 0.95105666
		 -2.9802322e-08 -1 1.000000119209 0.30901697 -1 0.9510566 0.58778524 -1 0.80901706
		 0.809017 -1 0.5877853 0.95105654 -1 0.309017 1 -1 0 0.95105714 1 -0.30901718 0.80901754 1 -0.5877856
		 0.5877856 1 -0.80901748 0.30901715 1 -0.95105702 0 1 -1.000000476837 -0.30901715 1 -0.95105696
		 -0.58778548 1 -0.8090173 -0.80901724 1 -0.58778542 -0.95105678 1 -0.30901706 -1.000000238419 1 0
		 -0.95105678 1 0.30901706 -0.80901718 1 0.58778536 -0.58778536 1 0.80901712 -0.30901706 1 0.95105666
		 -2.9802322e-08 1 1.000000119209 0.30901697 1 0.9510566 0.58778524 1 0.80901706 0.809017 1 0.5877853
		 0.95105654 1 0.309017 1 1 0 0 -1 0 0 1 0;
	setAttr -s 100 ".ed[0:99]"  0 1 0 1 2 0 2 3 0 3 4 0 4 5 0 5 6 0 6 7 0
		 7 8 0 8 9 0 9 10 0 10 11 0 11 12 0 12 13 0 13 14 0 14 15 0 15 16 0 16 17 0 17 18 0
		 18 19 0 19 0 0 20 21 0 21 22 0 22 23 0 23 24 0 24 25 0 25 26 0 26 27 0 27 28 0 28 29 0
		 29 30 0 30 31 0 31 32 0 32 33 0 33 34 0 34 35 0 35 36 0 36 37 0 37 38 0 38 39 0 39 20 0
		 0 20 1 1 21 1 2 22 1 3 23 1 4 24 1 5 25 1 6 26 1 7 27 1 8 28 1 9 29 1 10 30 1 11 31 1
		 12 32 1 13 33 1 14 34 1 15 35 1 16 36 1 17 37 1 18 38 1 19 39 1 40 0 1 40 1 1 40 2 1
		 40 3 1 40 4 1 40 5 1 40 6 1 40 7 1 40 8 1 40 9 1 40 10 1 40 11 1 40 12 1 40 13 1
		 40 14 1 40 15 1 40 16 1 40 17 1 40 18 1 40 19 1 20 41 1 21 41 1 22 41 1 23 41 1 24 41 1
		 25 41 1 26 41 1 27 41 1 28 41 1 29 41 1 30 41 1 31 41 1 32 41 1 33 41 1 34 41 1 35 41 1
		 36 41 1 37 41 1 38 41 1 39 41 1;
	setAttr -s 60 -ch 200 ".fc[0:59]" -type "polyFaces" 
		f 4 0 41 -21 -41
		mu 0 4 20 21 42 41
		f 4 1 42 -22 -42
		mu 0 4 21 22 43 42
		f 4 2 43 -23 -43
		mu 0 4 22 23 44 43
		f 4 3 44 -24 -44
		mu 0 4 23 24 45 44
		f 4 4 45 -25 -45
		mu 0 4 24 25 46 45
		f 4 5 46 -26 -46
		mu 0 4 25 26 47 46
		f 4 6 47 -27 -47
		mu 0 4 26 27 48 47
		f 4 7 48 -28 -48
		mu 0 4 27 28 49 48
		f 4 8 49 -29 -49
		mu 0 4 28 29 50 49
		f 4 9 50 -30 -50
		mu 0 4 29 30 51 50
		f 4 10 51 -31 -51
		mu 0 4 30 31 52 51
		f 4 11 52 -32 -52
		mu 0 4 31 32 53 52
		f 4 12 53 -33 -53
		mu 0 4 32 33 54 53
		f 4 13 54 -34 -54
		mu 0 4 33 34 55 54
		f 4 14 55 -35 -55
		mu 0 4 34 35 56 55
		f 4 15 56 -36 -56
		mu 0 4 35 36 57 56
		f 4 16 57 -37 -57
		mu 0 4 36 37 58 57
		f 4 17 58 -38 -58
		mu 0 4 37 38 59 58
		f 4 18 59 -39 -59
		mu 0 4 38 39 60 59
		f 4 19 40 -40 -60
		mu 0 4 39 40 61 60
		f 3 -1 -61 61
		mu 0 3 1 0 82
		f 3 -2 -62 62
		mu 0 3 2 1 82
		f 3 -3 -63 63
		mu 0 3 3 2 82
		f 3 -4 -64 64
		mu 0 3 4 3 82
		f 3 -5 -65 65
		mu 0 3 5 4 82
		f 3 -6 -66 66
		mu 0 3 6 5 82
		f 3 -7 -67 67
		mu 0 3 7 6 82
		f 3 -8 -68 68
		mu 0 3 8 7 82
		f 3 -9 -69 69
		mu 0 3 9 8 82
		f 3 -10 -70 70
		mu 0 3 10 9 82
		f 3 -11 -71 71
		mu 0 3 11 10 82
		f 3 -12 -72 72
		mu 0 3 12 11 82
		f 3 -13 -73 73
		mu 0 3 13 12 82
		f 3 -14 -74 74
		mu 0 3 14 13 82
		f 3 -15 -75 75
		mu 0 3 15 14 82
		f 3 -16 -76 76
		mu 0 3 16 15 82
		f 3 -17 -77 77
		mu 0 3 17 16 82
		f 3 -18 -78 78
		mu 0 3 18 17 82
		f 3 -19 -79 79
		mu 0 3 19 18 82
		f 3 -20 -80 60
		mu 0 3 0 19 82
		f 3 20 81 -81
		mu 0 3 80 79 83
		f 3 21 82 -82
		mu 0 3 79 78 83
		f 3 22 83 -83
		mu 0 3 78 77 83
		f 3 23 84 -84
		mu 0 3 77 76 83
		f 3 24 85 -85
		mu 0 3 76 75 83
		f 3 25 86 -86
		mu 0 3 75 74 83
		f 3 26 87 -87
		mu 0 3 74 73 83
		f 3 27 88 -88
		mu 0 3 73 72 83
		f 3 28 89 -89
		mu 0 3 72 71 83
		f 3 29 90 -90
		mu 0 3 71 70 83
		f 3 30 91 -91
		mu 0 3 70 69 83
		f 3 31 92 -92
		mu 0 3 69 68 83
		f 3 32 93 -93
		mu 0 3 68 67 83
		f 3 33 94 -94
		mu 0 3 67 66 83
		f 3 34 95 -95
		mu 0 3 66 65 83
		f 3 35 96 -96
		mu 0 3 65 64 83
		f 3 36 97 -97
		mu 0 3 64 63 83
		f 3 37 98 -98
		mu 0 3 63 62 83
		f 3 38 99 -99
		mu 0 3 62 81 83
		f 3 39 80 -100
		mu 0 3 81 80 83;
	setAttr ".cd" -type "dataPolyComponent" Index_Data Edge 0 ;
	setAttr ".cvd" -type "dataPolyComponent" Index_Data Vertex 0 ;
	setAttr ".pd[0]" -type "dataPolyComponent" Index_Data UV 0 ;
	setAttr ".hfd" -type "dataPolyComponent" Index_Data Face 0 ;
	setAttr ".ai_translator" -type "string" "polymesh";
createNode transform -n "pCube5";
	rename -uid "EFB1B3FE-492A-44CD-E7B1-D1B80CF073D3";
	setAttr ".t" -type "double3" 2.7025540008268085 1.2968798073543106 -1.1567971462176938 ;
	setAttr ".r" -type "double3" 0 0 23.708441839064132 ;
	setAttr ".s" -type "double3" 0.93531515069441407 0.16896963238087012 0.43336530067080936 ;
createNode transform -n "transform27" -p "pCube5";
	rename -uid "2407D4B0-4552-B9C8-CC3A-0DB687A4D894";
	setAttr ".v" no;
createNode mesh -n "pCubeShape5" -p "transform27";
	rename -uid "E093F228-4735-3F0A-D631-118AFAB7B1F6";
	setAttr -k off ".v";
	setAttr ".io" yes;
	setAttr ".iog[0].og[0].gcl" -type "componentList" 1 "f[0:5]";
	setAttr ".vir" yes;
	setAttr ".vif" yes;
	setAttr ".uvst[0].uvsn" -type "string" "map1";
	setAttr -s 14 ".uvst[0].uvsp[0:13]" -type "float2" 0.375 0 0.625 0 0.375
		 0.25 0.625 0.25 0.375 0.5 0.625 0.5 0.375 0.75 0.625 0.75 0.375 1 0.625 1 0.875 0
		 0.875 0.25 0.125 0 0.125 0.25;
	setAttr ".cuvs" -type "string" "map1";
	setAttr ".dcc" -type "string" "Ambient+Diffuse";
	setAttr ".covm[0]"  0 1 1;
	setAttr ".cdvm[0]"  0 1 1;
	setAttr -s 8 ".vt[0:7]"  -0.5 -0.5 0.5 0.5 -0.5 0.5 -0.5 0.5 0.5 0.5 0.5 0.5
		 -0.5 0.5 -0.5 0.5 0.5 -0.5 -0.5 -0.5 -0.5 0.5 -0.5 -0.5;
	setAttr -s 12 ".ed[0:11]"  0 1 0 2 3 0 4 5 0 6 7 0 0 2 0 1 3 0 2 4 0
		 3 5 0 4 6 0 5 7 0 6 0 0 7 1 0;
	setAttr -s 6 -ch 24 ".fc[0:5]" -type "polyFaces" 
		f 4 0 5 -2 -5
		mu 0 4 0 1 3 2
		f 4 1 7 -3 -7
		mu 0 4 2 3 5 4
		f 4 2 9 -4 -9
		mu 0 4 4 5 7 6
		f 4 3 11 -1 -11
		mu 0 4 6 7 9 8
		f 4 -12 -10 -8 -6
		mu 0 4 1 10 11 3
		f 4 10 4 6 8
		mu 0 4 12 0 2 13;
	setAttr ".cd" -type "dataPolyComponent" Index_Data Edge 0 ;
	setAttr ".cvd" -type "dataPolyComponent" Index_Data Vertex 0 ;
	setAttr ".pd[0]" -type "dataPolyComponent" Index_Data UV 0 ;
	setAttr ".hfd" -type "dataPolyComponent" Index_Data Face 0 ;
	setAttr ".ai_translator" -type "string" "polymesh";
createNode transform -n "pCylinder11";
	rename -uid "8EEED981-412B-3489-41F9-D0B05951F76C";
	setAttr ".t" -type "double3" 1.1024977433352432 5.3871397094017732 0 ;
	setAttr ".r" -type "double3" 90 0 0 ;
	setAttr ".s" -type "double3" 0.10767638284072586 0.85720806642315572 0.10767638284072586 ;
createNode transform -n "transform28" -p "pCylinder11";
	rename -uid "A6CA98D8-4322-416D-FCFE-6F83B9FD6194";
	setAttr ".v" no;
createNode mesh -n "pCylinderShape11" -p "transform28";
	rename -uid "BE47308B-45D6-C4E4-D718-A694488D8270";
	setAttr -k off ".v";
	setAttr ".io" yes;
	setAttr -s 2 ".iog[0].og";
	setAttr ".vir" yes;
	setAttr ".vif" yes;
	setAttr ".uvst[0].uvsn" -type "string" "map1";
	setAttr ".cuvs" -type "string" "map1";
	setAttr ".dcc" -type "string" "Ambient+Diffuse";
	setAttr ".covm[0]"  0 1 1;
	setAttr ".cdvm[0]"  0 1 1;
	setAttr ".ai_translator" -type "string" "polymesh";
createNode transform -n "pCone1";
	rename -uid "5932961F-4599-CD8D-BF35-DF8B679EB926";
	setAttr ".t" -type "double3" -1.1065584902579024 2.8111838913477838 0 ;
	setAttr ".r" -type "double3" 0 0 146.83572115781379 ;
	setAttr ".s" -type "double3" 1 1.744772338705747 1 ;
createNode transform -n "transform21" -p "pCone1";
	rename -uid "7A996643-46D2-ED00-4F5D-CCBBCE444209";
	setAttr ".v" no;
createNode mesh -n "pConeShape1" -p "transform21";
	rename -uid "0879379A-4273-AE81-073C-84A10583D157";
	setAttr -k off ".v";
	setAttr ".io" yes;
	setAttr -s 2 ".iog[0].og";
	setAttr ".vir" yes;
	setAttr ".vif" yes;
	setAttr ".uvst[0].uvsn" -type "string" "map1";
	setAttr ".cuvs" -type "string" "map1";
	setAttr ".dcc" -type "string" "Ambient+Diffuse";
	setAttr ".covm[0]"  0 1 1;
	setAttr ".cdvm[0]"  0 1 1;
	setAttr ".ai_translator" -type "string" "polymesh";
createNode transform -n "pSphere7";
	rename -uid "7BB1CA71-4119-D407-DDE9-8E8A41852E2A";
	setAttr ".rp" -type "double3" -0.12989104079607316 3.1074215734967559 -2.8485383030130151e-07 ;
	setAttr ".sp" -type "double3" -0.12989104079607316 3.1074215734967559 -2.8485383030130151e-07 ;
createNode transform -n "transform29" -p "pSphere7";
	rename -uid "C1AF8E23-4DC6-C4A9-5494-398AD6FAD965";
	setAttr ".v" no;
createNode mesh -n "pSphere7Shape" -p "transform29";
	rename -uid "90FA3ADB-425A-D494-E8BE-F68400B7FEB5";
	setAttr -k off ".v";
	setAttr ".io" yes;
	setAttr -s 2 ".iog[0].og";
	setAttr ".vir" yes;
	setAttr ".vif" yes;
	setAttr ".uvst[0].uvsn" -type "string" "map1";
	setAttr ".cuvs" -type "string" "map1";
	setAttr ".dcc" -type "string" "Ambient+Diffuse";
	setAttr ".covm[0]"  0 1 1;
	setAttr ".cdvm[0]"  0 1 1;
	setAttr ".ai_translator" -type "string" "polymesh";
createNode transform -n "pSphere8";
	rename -uid "2E520B5F-4B64-3EC9-5F76-07A2D99229D2";
	setAttr ".r" -type "double3" 0 0 -28.579087403042248 ;
	setAttr ".rp" -type "double3" 0.55184570121077292 3.0258035054135033 -2.384185791015625e-07 ;
	setAttr ".sp" -type "double3" 0.55184570121077292 3.0258035054135033 -2.384185791015625e-07 ;
createNode mesh -n "pSphere8Shape" -p "pSphere8";
	rename -uid "0CC63218-4F52-9FD2-AC0B-FAB814F80257";
	setAttr -k off ".v";
	setAttr -s 6 ".iog[0].og";
	setAttr ".vir" yes;
	setAttr ".vif" yes;
	setAttr ".uvst[0].uvsn" -type "string" "map1";
	setAttr ".cuvs" -type "string" "map1";
	setAttr ".dcc" -type "string" "Ambient+Diffuse";
	setAttr ".covm[0]"  0 1 1;
	setAttr ".cdvm[0]"  0 1 1;
	setAttr ".ai_translator" -type "string" "polymesh";
createNode groupParts -n "groupParts27";
	rename -uid "A792C6AC-4611-9199-7FC2-F18D1D739173";
	setAttr ".ihi" 0;
	setAttr ".ic" -type "componentList" 1 "f[1467:1526]";
createNode groupParts -n "groupParts26";
	rename -uid "0E07B423-4EE2-C375-65F0-43BC54F54160";
	setAttr ".ihi" 0;
	setAttr ".ic" -type "componentList" 1 "f[806:1466]";
createNode groupParts -n "groupParts25";
	rename -uid "90233105-45F9-E48B-35EE-8CAF5A13B2B8";
	setAttr ".ihi" 0;
	setAttr ".ic" -type "componentList" 2 "f[0:805]" "f[1527:1532]";
createNode polyUnite -n "polyUnite3";
	rename -uid "4A5293E6-4838-F4FF-8B1E-759059AE1DA2";
	setAttr -s 6 ".ip";
	setAttr -s 6 ".im";
createNode groupId -n "groupId53";
	rename -uid "B34E68ED-47F0-681D-3492-BEB51266BA8E";
	setAttr ".ihi" 0;
createNode shadingEngine -n "lambert2SG";
	rename -uid "17672A07-4570-0C1A-41C8-C6A6FE7AA608";
	setAttr ".ihi" 0;
	setAttr -s 9 ".dsm";
	setAttr ".ro" yes;
	setAttr -s 9 ".gn";
createNode materialInfo -n "materialInfo2";
	rename -uid "F0BF78C9-418C-66A4-DF06-90AC9B94F712";
createNode lambert -n "lambert2";
	rename -uid "CB86D3DE-462F-5F13-8C50-60BBE95E14BF";
	setAttr ".c" -type "float3" 0.54000002 0.39089999 0.1376 ;
createNode groupId -n "groupId54";
	rename -uid "11EEC30D-4B93-3F38-A14B-518F45BD1D6E";
	setAttr ".ihi" 0;
createNode groupId -n "groupId55";
	rename -uid "98B2D3CD-4CA2-50B8-F5BD-339B885D7CEE";
	setAttr ".ihi" 0;
createNode groupParts -n "groupParts21";
	rename -uid "2CD34ABC-4DB9-F655-B246-128AE9BC7AC9";
	setAttr ".ihi" 0;
	setAttr ".ic" -type "componentList" 1 "f[0:399]";
createNode polySphere -n "polySphere4";
	rename -uid "D61CDE2C-4972-8226-76A4-2C9D885FF48B";
createNode groupId -n "groupId56";
	rename -uid "287D746D-465E-B15C-12EA-68A7F9BCB423";
	setAttr ".ihi" 0;
createNode groupId -n "groupId57";
	rename -uid "EFF44F72-4B0B-885A-435E-50B0A8CDF8AA";
	setAttr ".ihi" 0;
createNode groupParts -n "groupParts22";
	rename -uid "20375AB9-4AFF-9C45-A445-F0AD9B721030";
	setAttr ".ihi" 0;
	setAttr ".ic" -type "componentList" 1 "f[0:5]";
createNode polyCube -n "polyCube4";
	rename -uid "E84686DC-4AC7-F99F-B17D-C5BA787CBC7F";
	setAttr ".cuv" 4;
createNode groupId -n "groupId58";
	rename -uid "C1458825-4F66-AAC5-8AA6-0CBBA8FA929B";
	setAttr ".ihi" 0;
createNode groupParts -n "groupParts23";
	rename -uid "05D5A60B-4B6A-3C61-8E44-9FB6BB9D09EB";
	setAttr ".ihi" 0;
	setAttr ".ic" -type "componentList" 1 "f[0:660]";
createNode polyUnite -n "polyUnite2";
	rename -uid "332FEF9F-45FB-6D11-10E1-40822E78C958";
	setAttr -s 6 ".ip";
	setAttr -s 6 ".im";
createNode groupId -n "groupId41";
	rename -uid "AA70B916-477D-384A-5045-9197458C6CB8";
	setAttr ".ihi" 0;
createNode groupParts -n "groupParts17";
	rename -uid "218B426F-4BC1-C4B2-26C3-FCA0C28440CD";
	setAttr ".ihi" 0;
	setAttr ".ic" -type "componentList" 1 "f[0:399]";
createNode polySphere -n "polySphere3";
	rename -uid "723BD098-4809-2B78-078E-FE9D710D88C2";
createNode groupId -n "groupId42";
	rename -uid "2754DFDA-4F56-7547-2EF4-4FA6D50E9B6D";
	setAttr ".ihi" 0;
createNode groupId -n "groupId43";
	rename -uid "CE521D2F-4FC2-E882-CBFD-3484BED98278";
	setAttr ".ihi" 0;
createNode groupParts -n "groupParts18";
	rename -uid "BDDC524D-4D8F-9E1C-9B8F-C8BACD0170AF";
	setAttr ".ihi" 0;
	setAttr ".ic" -type "componentList" 1 "f[0:59]";
createNode polyCylinder -n "polyCylinder4";
	rename -uid "E99C7D0C-42F0-0287-04B0-F6993E0FE1C3";
	setAttr ".sc" 1;
	setAttr ".cuv" 3;
createNode groupId -n "groupId44";
	rename -uid "0D798CA7-4940-632E-1B42-60899705F822";
	setAttr ".ihi" 0;
createNode groupId -n "groupId45";
	rename -uid "2813D521-4EBE-A0C5-1CD3-5BB4606411EF";
	setAttr ".ihi" 0;
createNode groupId -n "groupId46";
	rename -uid "DD2A764C-4BBD-BB42-136B-3798D578B035";
	setAttr ".ihi" 0;
createNode groupId -n "groupId47";
	rename -uid "0D01476C-487C-24D5-C29E-1D9DCD49A2A6";
	setAttr ".ihi" 0;
createNode groupParts -n "groupParts19";
	rename -uid "9BDA77E9-4498-3F4A-0946-D8B40E9A7F11";
	setAttr ".ihi" 0;
	setAttr ".ic" -type "componentList" 1 "f[0:59]";
createNode polyCylinder -n "polyCylinder5";
	rename -uid "5176A381-432A-0D88-9E81-28A29563ADE0";
	setAttr ".sc" 1;
	setAttr ".cuv" 3;
createNode groupId -n "groupId48";
	rename -uid "23E9B303-46B7-0EAF-C419-B18EC05281EA";
	setAttr ".ihi" 0;
createNode groupId -n "groupId49";
	rename -uid "C0D6B702-47D2-CED1-CEFD-48958BC97453";
	setAttr ".ihi" 0;
createNode groupId -n "groupId50";
	rename -uid "0EA09B4A-46EF-9349-3B23-5D9AC15455A2";
	setAttr ".ihi" 0;
createNode groupId -n "groupId51";
	rename -uid "6928E69F-47F9-D31C-E624-69921C5C7FA4";
	setAttr ".ihi" 0;
createNode groupParts -n "groupParts20";
	rename -uid "73B01C86-4F2B-BFFC-007E-1EA89705E52B";
	setAttr ".ihi" 0;
	setAttr ".ic" -type "componentList" 1 "f[0:20]";
createNode polyCone -n "polyCone1";
	rename -uid "EF94AD84-47FA-1DF2-56D1-5F9A769F5D5F";
	setAttr ".cuv" 3;
createNode groupId -n "groupId52";
	rename -uid "E26F1179-46E2-188E-63A8-09AEFD37FBF2";
	setAttr ".ihi" 0;
createNode groupId -n "groupId59";
	rename -uid "E3EA5BDD-44B2-FC4E-CC10-F49E36AA763D";
	setAttr ".ihi" 0;
createNode shadingEngine -n "lambert11SG";
	rename -uid "6CA0EB3E-4FB0-5F02-1D27-D9ADF2DE7C3E";
	setAttr ".ihi" 0;
	setAttr -s 3 ".dsm";
	setAttr ".ro" yes;
	setAttr -s 3 ".gn";
createNode materialInfo -n "materialInfo12";
	rename -uid "428FD331-457A-A7C7-1B67-2599C6FB2EC7";
createNode lambert -n "lambert11";
	rename -uid "452136FF-4C10-DB5F-62E0-78940F80A62E";
	setAttr ".c" -type "float3" 0.38350001 0.2174 0.1654 ;
createNode groupId -n "groupId60";
	rename -uid "1D6A5C87-43BE-0D6B-FD24-A593BCC0030D";
	setAttr ".ihi" 0;
createNode groupId -n "groupId61";
	rename -uid "9DC42FC7-4F9E-BFFB-B31D-1087C4140BB1";
	setAttr ".ihi" 0;
createNode shadingEngine -n "lambert5SG";
	rename -uid "0D8BCFC8-47DB-33F0-53DC-978E0D86B887";
	setAttr ".ihi" 0;
	setAttr -s 5 ".dsm";
	setAttr ".ro" yes;
	setAttr -s 5 ".gn";
createNode materialInfo -n "materialInfo5";
	rename -uid "951F5879-4CA3-4E51-C6E8-08A6EEFE1D38";
createNode lambert -n "lambert5";
	rename -uid "93E35B37-40D2-65E6-32F3-F8ADE6E1C2A3";
	setAttr ".c" -type "float3" 0.43979999 0.0493 0.043099999 ;
createNode groupParts -n "groupParts24";
	rename -uid "9E8913EC-4760-3802-7C4C-8891740295A0";
	setAttr ".ihi" 0;
	setAttr ".ic" -type "componentList" 1 "f[0:59]";
createNode polyCylinder -n "polyCylinder6";
	rename -uid "7F473E40-4FE5-605D-D98D-F7BF05C906F6";
	setAttr ".sc" 1;
	setAttr ".cuv" 3;
createNode groupId -n "groupId62";
	rename -uid "9956933E-4332-A27D-5210-47BA8AD0CBA6";
	setAttr ".ihi" 0;
createNode groupId -n "groupId63";
	rename -uid "D35C742B-4243-27A8-85AD-A883CF2F932D";
	setAttr ".ihi" 0;
createNode groupId -n "groupId64";
	rename -uid "F70091B1-4F77-C4BA-D761-C5967D611025";
	setAttr ".ihi" 0;
createNode groupId -n "groupId65";
	rename -uid "B838E359-4017-D499-ECD3-9AB0ED2C0CC3";
	setAttr ".ihi" 0;
createNode groupId -n "groupId66";
	rename -uid "A0E79690-4FFF-1AD1-7632-279F6FC913BC";
	setAttr ".ihi" 0;
createNode groupId -n "groupId67";
	rename -uid "A3C60EFA-4AC4-A4C1-8D83-98B4709ACDD7";
	setAttr ".ihi" 0;
createNode lightLinker -s -n "lightLinker1";
	rename -uid "34D1AC75-4A07-415A-77A1-A99DB82D758D";
	setAttr -s 14 ".lnk";
	setAttr -s 14 ".slnk";
select -ne :time1;
	setAttr ".o" 1;
	setAttr ".unw" 1;
select -ne :hardwareRenderingGlobals;
	setAttr ".otfna" -type "stringArray" 22 "NURBS Curves" "NURBS Surfaces" "Polygons" "Subdiv Surface" "Particles" "Particle Instance" "Fluids" "Strokes" "Image Planes" "UI" "Lights" "Cameras" "Locators" "Joints" "IK Handles" "Deformers" "Motion Trails" "Components" "Hair Systems" "Follicles" "Misc. UI" "Ornaments"  ;
	setAttr ".otfva" -type "Int32Array" 22 0 1 1 1 1 1
		 1 1 1 0 0 0 0 0 0 0 0 0
		 0 0 0 0 ;
	setAttr ".fprt" yes;
select -ne :renderPartition;
	setAttr -s 14 ".st";
select -ne :renderGlobalsList1;
select -ne :defaultShaderList1;
	setAttr -s 16 ".s";
select -ne :postProcessList1;
	setAttr -s 2 ".p";
select -ne :defaultRenderingList1;
select -ne :initialShadingGroup;
	setAttr -s 17 ".dsm";
	setAttr ".ro" yes;
	setAttr -s 17 ".gn";
select -ne :initialParticleSE;
	setAttr ".ro" yes;
select -ne :defaultRenderGlobals;
	setAttr ".ren" -type "string" "arnold";
	setAttr ".outf" 51;
	setAttr ".imfkey" -type "string" "exr";
select -ne :defaultResolution;
	setAttr ".pa" 1;
select -ne :hardwareRenderGlobals;
	setAttr ".ctrs" 256;
	setAttr ".btrs" 512;
select -ne :ikSystem;
	setAttr -s 4 ".sol";
connectAttr "groupId41.id" "pSphereShape4.iog.og[0].gid";
connectAttr ":initialShadingGroup.mwc" "pSphereShape4.iog.og[0].gco";
connectAttr "groupParts17.og" "pSphereShape4.i";
connectAttr "groupId42.id" "pSphereShape4.ciog.cog[0].cgid";
connectAttr "groupId43.id" "pCylinderShape7.iog.og[0].gid";
connectAttr ":initialShadingGroup.mwc" "pCylinderShape7.iog.og[0].gco";
connectAttr "groupParts18.og" "pCylinderShape7.i";
connectAttr "groupId44.id" "pCylinderShape7.ciog.cog[0].cgid";
connectAttr "groupId47.id" "pCylinderShape8.iog.og[0].gid";
connectAttr ":initialShadingGroup.mwc" "pCylinderShape8.iog.og[0].gco";
connectAttr "groupParts19.og" "pCylinderShape8.i";
connectAttr "groupId48.id" "pCylinderShape8.ciog.cog[0].cgid";
connectAttr "groupId55.id" "pSphereShape5.iog.og[0].gid";
connectAttr "lambert2SG.mwc" "pSphereShape5.iog.og[0].gco";
connectAttr "groupParts21.og" "pSphereShape5.i";
connectAttr "groupId56.id" "pSphereShape5.ciog.cog[0].cgid";
connectAttr "groupId57.id" "pCubeShape4.iog.og[0].gid";
connectAttr "lambert2SG.mwc" "pCubeShape4.iog.og[0].gco";
connectAttr "groupParts22.og" "pCubeShape4.i";
connectAttr "groupId58.id" "pCubeShape4.ciog.cog[0].cgid";
connectAttr "groupId45.id" "pCylinderShape9.iog.og[0].gid";
connectAttr ":initialShadingGroup.mwc" "pCylinderShape9.iog.og[0].gco";
connectAttr "groupId46.id" "pCylinderShape9.ciog.cog[0].cgid";
connectAttr "groupId53.id" "pSphereShape6.iog.og[0].gid";
connectAttr "lambert2SG.mwc" "pSphereShape6.iog.og[0].gco";
connectAttr "groupId54.id" "pSphereShape6.ciog.cog[0].cgid";
connectAttr "groupId49.id" "pCylinderShape10.iog.og[0].gid";
connectAttr ":initialShadingGroup.mwc" "pCylinderShape10.iog.og[0].gco";
connectAttr "groupId50.id" "pCylinderShape10.ciog.cog[0].cgid";
connectAttr "groupId63.id" "pCubeShape5.iog.og[0].gid";
connectAttr "lambert2SG.mwc" "pCubeShape5.iog.og[0].gco";
connectAttr "groupId64.id" "pCubeShape5.ciog.cog[0].cgid";
connectAttr "groupId61.id" "pCylinderShape11.iog.og[0].gid";
connectAttr "lambert5SG.mwc" "pCylinderShape11.iog.og[0].gco";
connectAttr "groupParts24.og" "pCylinderShape11.i";
connectAttr "groupId62.id" "pCylinderShape11.ciog.cog[0].cgid";
connectAttr "groupId51.id" "pConeShape1.iog.og[0].gid";
connectAttr ":initialShadingGroup.mwc" "pConeShape1.iog.og[0].gco";
connectAttr "groupParts20.og" "pConeShape1.i";
connectAttr "groupId52.id" "pConeShape1.ciog.cog[0].cgid";
connectAttr "groupParts23.og" "pSphere7Shape.i";
connectAttr "groupId59.id" "pSphere7Shape.iog.og[1].gid";
connectAttr "lambert11SG.mwc" "pSphere7Shape.iog.og[1].gco";
connectAttr "groupId60.id" "pSphere7Shape.ciog.cog[0].cgid";
connectAttr "groupParts27.og" "pSphere8Shape.i";
connectAttr "groupId65.id" "pSphere8Shape.iog.og[0].gid";
connectAttr "lambert2SG.mwc" "pSphere8Shape.iog.og[0].gco";
connectAttr "groupId66.id" "pSphere8Shape.iog.og[1].gid";
connectAttr "lambert11SG.mwc" "pSphere8Shape.iog.og[1].gco";
connectAttr "groupId67.id" "pSphere8Shape.iog.og[2].gid";
connectAttr "lambert5SG.mwc" "pSphere8Shape.iog.og[2].gco";
connectAttr "groupParts26.og" "groupParts27.ig";
connectAttr "groupId67.id" "groupParts27.gi";
connectAttr "groupParts25.og" "groupParts26.ig";
connectAttr "groupId66.id" "groupParts26.gi";
connectAttr "polyUnite3.out" "groupParts25.ig";
connectAttr "groupId65.id" "groupParts25.gi";
connectAttr "pSphereShape6.o" "polyUnite3.ip[0]";
connectAttr "pSphereShape5.o" "polyUnite3.ip[1]";
connectAttr "pCubeShape4.o" "polyUnite3.ip[2]";
connectAttr "pSphere7Shape.o" "polyUnite3.ip[3]";
connectAttr "pCylinderShape11.o" "polyUnite3.ip[4]";
connectAttr "pCubeShape5.o" "polyUnite3.ip[5]";
connectAttr "pSphereShape6.wm" "polyUnite3.im[0]";
connectAttr "pSphereShape5.wm" "polyUnite3.im[1]";
connectAttr "pCubeShape4.wm" "polyUnite3.im[2]";
connectAttr "pSphere7Shape.wm" "polyUnite3.im[3]";
connectAttr "pCylinderShape11.wm" "polyUnite3.im[4]";
connectAttr "pCubeShape5.wm" "polyUnite3.im[5]";
connectAttr "lambert2.oc" "lambert2SG.ss";
connectAttr "pSphereShape6.iog.og[0]" "lambert2SG.dsm" -na;
connectAttr "pSphereShape6.ciog.cog[0]" "lambert2SG.dsm" -na;
connectAttr "pSphereShape5.iog.og[0]" "lambert2SG.dsm" -na;
connectAttr "pSphereShape5.ciog.cog[0]" "lambert2SG.dsm" -na;
connectAttr "pCubeShape4.iog.og[0]" "lambert2SG.dsm" -na;
connectAttr "pCubeShape4.ciog.cog[0]" "lambert2SG.dsm" -na;
connectAttr "pCubeShape5.iog.og[0]" "lambert2SG.dsm" -na;
connectAttr "pCubeShape5.ciog.cog[0]" "lambert2SG.dsm" -na;
connectAttr "pSphere8Shape.iog.og[0]" "lambert2SG.dsm" -na;
connectAttr "groupId53.msg" "lambert2SG.gn" -na;
connectAttr "groupId54.msg" "lambert2SG.gn" -na;
connectAttr "groupId55.msg" "lambert2SG.gn" -na;
connectAttr "groupId56.msg" "lambert2SG.gn" -na;
connectAttr "groupId57.msg" "lambert2SG.gn" -na;
connectAttr "groupId58.msg" "lambert2SG.gn" -na;
connectAttr "groupId63.msg" "lambert2SG.gn" -na;
connectAttr "groupId64.msg" "lambert2SG.gn" -na;
connectAttr "groupId65.msg" "lambert2SG.gn" -na;
connectAttr "lambert2SG.msg" "materialInfo2.sg";
connectAttr "lambert2.msg" "materialInfo2.m";
connectAttr "polySphere4.out" "groupParts21.ig";
connectAttr "groupId55.id" "groupParts21.gi";
connectAttr "polyCube4.out" "groupParts22.ig";
connectAttr "groupId57.id" "groupParts22.gi";
connectAttr "polyUnite2.out" "groupParts23.ig";
connectAttr "groupId59.id" "groupParts23.gi";
connectAttr "pSphereShape4.o" "polyUnite2.ip[0]";
connectAttr "pCylinderShape7.o" "polyUnite2.ip[1]";
connectAttr "pCylinderShape9.o" "polyUnite2.ip[2]";
connectAttr "pCylinderShape8.o" "polyUnite2.ip[3]";
connectAttr "pCylinderShape10.o" "polyUnite2.ip[4]";
connectAttr "pConeShape1.o" "polyUnite2.ip[5]";
connectAttr "pSphereShape4.wm" "polyUnite2.im[0]";
connectAttr "pCylinderShape7.wm" "polyUnite2.im[1]";
connectAttr "pCylinderShape9.wm" "polyUnite2.im[2]";
connectAttr "pCylinderShape8.wm" "polyUnite2.im[3]";
connectAttr "pCylinderShape10.wm" "polyUnite2.im[4]";
connectAttr "pConeShape1.wm" "polyUnite2.im[5]";
connectAttr "polySphere3.out" "groupParts17.ig";
connectAttr "groupId41.id" "groupParts17.gi";
connectAttr "polyCylinder4.out" "groupParts18.ig";
connectAttr "groupId43.id" "groupParts18.gi";
connectAttr "polyCylinder5.out" "groupParts19.ig";
connectAttr "groupId47.id" "groupParts19.gi";
connectAttr "polyCone1.out" "groupParts20.ig";
connectAttr "groupId51.id" "groupParts20.gi";
connectAttr "lambert11.oc" "lambert11SG.ss";
connectAttr "pSphere7Shape.iog.og[1]" "lambert11SG.dsm" -na;
connectAttr "pSphere7Shape.ciog.cog[0]" "lambert11SG.dsm" -na;
connectAttr "pSphere8Shape.iog.og[1]" "lambert11SG.dsm" -na;
connectAttr "groupId59.msg" "lambert11SG.gn" -na;
connectAttr "groupId60.msg" "lambert11SG.gn" -na;
connectAttr "groupId66.msg" "lambert11SG.gn" -na;
connectAttr "lambert11SG.msg" "materialInfo12.sg";
connectAttr "lambert11.msg" "materialInfo12.m";
connectAttr "lambert5.oc" "lambert5SG.ss";
connectAttr "pCylinderShape11.iog.og[0]" "lambert5SG.dsm" -na;
connectAttr "pCylinderShape11.ciog.cog[0]" "lambert5SG.dsm" -na;
connectAttr "pSphere8Shape.iog.og[2]" "lambert5SG.dsm" -na;
connectAttr "groupId61.msg" "lambert5SG.gn" -na;
connectAttr "groupId62.msg" "lambert5SG.gn" -na;
connectAttr "groupId67.msg" "lambert5SG.gn" -na;
connectAttr "lambert5SG.msg" "materialInfo5.sg";
connectAttr "lambert5.msg" "materialInfo5.m";
connectAttr "polyCylinder6.out" "groupParts24.ig";
connectAttr "groupId61.id" "groupParts24.gi";
relationship "link" ":lightLinker1" ":initialShadingGroup.message" ":defaultLightSet.message";
relationship "link" ":lightLinker1" ":initialParticleSE.message" ":defaultLightSet.message";
relationship "link" ":lightLinker1" "lambert2SG.message" ":defaultLightSet.message";
relationship "link" ":lightLinker1" "lambert5SG.message" ":defaultLightSet.message";
relationship "link" ":lightLinker1" "lambert11SG.message" ":defaultLightSet.message";
relationship "shadowLink" ":lightLinker1" ":initialShadingGroup.message" ":defaultLightSet.message";
relationship "shadowLink" ":lightLinker1" ":initialParticleSE.message" ":defaultLightSet.message";
relationship "shadowLink" ":lightLinker1" "lambert2SG.message" ":defaultLightSet.message";
relationship "shadowLink" ":lightLinker1" "lambert5SG.message" ":defaultLightSet.message";
relationship "shadowLink" ":lightLinker1" "lambert11SG.message" ":defaultLightSet.message";
connectAttr "lambert2SG.pa" ":renderPartition.st" -na;
connectAttr "lambert5SG.pa" ":renderPartition.st" -na;
connectAttr "lambert11SG.pa" ":renderPartition.st" -na;
connectAttr "lambert2.msg" ":defaultShaderList1.s" -na;
connectAttr "lambert5.msg" ":defaultShaderList1.s" -na;
connectAttr "lambert11.msg" ":defaultShaderList1.s" -na;
connectAttr "pSphereShape4.iog.og[0]" ":initialShadingGroup.dsm" -na;
connectAttr "pSphereShape4.ciog.cog[0]" ":initialShadingGroup.dsm" -na;
connectAttr "pCylinderShape7.iog.og[0]" ":initialShadingGroup.dsm" -na;
connectAttr "pCylinderShape7.ciog.cog[0]" ":initialShadingGroup.dsm" -na;
connectAttr "pCylinderShape9.iog.og[0]" ":initialShadingGroup.dsm" -na;
connectAttr "pCylinderShape9.ciog.cog[0]" ":initialShadingGroup.dsm" -na;
connectAttr "pCylinderShape8.iog.og[0]" ":initialShadingGroup.dsm" -na;
connectAttr "pCylinderShape8.ciog.cog[0]" ":initialShadingGroup.dsm" -na;
connectAttr "pCylinderShape10.iog.og[0]" ":initialShadingGroup.dsm" -na;
connectAttr "pCylinderShape10.ciog.cog[0]" ":initialShadingGroup.dsm" -na;
connectAttr "pConeShape1.iog.og[0]" ":initialShadingGroup.dsm" -na;
connectAttr "pConeShape1.ciog.cog[0]" ":initialShadingGroup.dsm" -na;
connectAttr "groupId41.msg" ":initialShadingGroup.gn" -na;
connectAttr "groupId42.msg" ":initialShadingGroup.gn" -na;
connectAttr "groupId43.msg" ":initialShadingGroup.gn" -na;
connectAttr "groupId44.msg" ":initialShadingGroup.gn" -na;
connectAttr "groupId45.msg" ":initialShadingGroup.gn" -na;
connectAttr "groupId46.msg" ":initialShadingGroup.gn" -na;
connectAttr "groupId47.msg" ":initialShadingGroup.gn" -na;
connectAttr "groupId48.msg" ":initialShadingGroup.gn" -na;
connectAttr "groupId49.msg" ":initialShadingGroup.gn" -na;
connectAttr "groupId50.msg" ":initialShadingGroup.gn" -na;
connectAttr "groupId51.msg" ":initialShadingGroup.gn" -na;
connectAttr "groupId52.msg" ":initialShadingGroup.gn" -na;
// End of Eni.ma
